Original file	13	0.98	0.78	0.00	0.00	59300	16677	-1.52	0.77
Combined_old	0.89	0.35	-1.22	-0.42
LS	L1ACAA_UNIQUE_OUTPUT.txt	0.89	0.11	3313	0.98	0.02	-1.40	0.06
LS	L1BCAA_UNIQUE_OUTPUT.txt	0.93	0.07	2538	0.99	0.01	-1.72	0.04
LS	L2ACAA_UNIQUE_OUTPUT.txt	0.94	0.06	2259	1.00	0.00	-1.73	0.03
LS	L2BCAA_UNIQUE_OUTPUT.txt	0.92	0.08	3001	0.99	0.01	-1.39	0.04
LS	L3ACAA_UNIQUE_OUTPUT.txt	0.90	0.10	1423	0.97	0.03	-1.46	0.06
LS	L3BCAA_UNIQUE_OUTPUT.txt	0.90	0.10	5157	0.93	0.07	-1.48	0.05
LS	L4ACAA_UNIQUE_OUTPUT.txt	0.92	0.08	25611	0.92	0.08	-1.56	0.05
LS	L4BCAA_UNIQUE_OUTPUT.txt	0.90	0.10	16850	0.91	0.09	-1.51	0.06
LS	L5ACAA_UNIQUE_OUTPUT.txt	0.91	0.09	4413	0.95	0.05	-1.59	0.05
LS	L5BCAA_UNIQUE_OUTPUT.txt	0.90	0.10	4053	0.96	0.04	-1.47	0.06
LS	L6ACAA_UNIQUE_OUTPUT.txt	0.91	0.09	11881	0.90	0.10	-1.55	0.05
LS	L6BCAA_UNIQUE_OUTPUT.txt	0.92	0.08	11533	0.93	0.07	-1.57	0.05
LS	L7ACAA_UNIQUE_OUTPUT.txt	0.92	0.08	13357	0.97	0.03	-1.48	0.05
LS	L7BCAA_UNIQUE_OUTPUT.txt	0.90	0.10	12652	0.94	0.06	-1.49	0.06
LS	L8ACAA_UNIQUE_OUTPUT.txt	0.90	0.10	11252	0.94	0.06	-1.45	0.06
LS	L8BCAA_UNIQUE_OUTPUT.txt	0.92	0.08	11436	0.97	0.03	-1.52	0.05
