Count	Percentage	CDR3 nucleotide sequence	CDR3 amino acid sequence	V segments	J segments	D segments	Last V nucleotide position	First D nucleotide position	Last D nucleotide position	First J nucleotide position	Good events	Total events	Good reads	Total reads
13	0.0132924335	TGCAGCGTCCGGGACGGAGATCAGCCCCAGCATTTT	CSVRDGDQPQHF	TRBV29-1*01	TRBJ1-5*01	.	7	.	.	19	13	13	940	940
12	0.0122699387	TGTGCCAGCAGCCCCCGGACTAGCGGGGAGACCCAGTACTTC	CASSPRTSGETQYF	TRBV7-9*01	TRBJ2-5*01	.	11	.	.	27	12	15	1201	1209
10	0.0102249489	TGTGCCACCAACAGGGGGAATGAGCAGTTCTTC	CATNRGNEQFF	TRBV24-1*01	TRBJ2-1*01	.	9	.	.	18	10	12	1516	1521
8	0.0081799591	TGCGCCAGCAGCTTGGATCGCGGGGAGCTGTTTTTT	CASSLDRGELFF	TRBV5-1*01	TRBJ2-2*01	.	15	.	.	20	8	8	622	622
8	0.0081799591	TGGGCTAGTGGGGGGAGAGCAGTTCTTC	WASGgg??gaEQFF	TRBV12-5*01	TRBJ2-1*01	.	10	.	.	16	8	10	1307	1313
8	0.0081799591	TGTGCCAGCAGCCCCTCCATAGA	CASag?PLHR	TRBV7-3*01	TRBJ1-6*01	.	11	.	.	11	8	9	23	25
8	0.0081799591	TGTGCCAGCAGCCAGGGACAGAACACTGAAGCTTTCTTT	CASSQGQNTEAFF	TRBV5-4*01	TRBJ1-1*01	.	11	.	.	20	8	8	431	431
8	0.0081799591	TGTGCCAGCAGCTTACCCCTACCGACAAATGAGCAGTTCTTC	CASSLPLPTNEQFF	TRBV7-9*01	TRBJ2-1*01	.	14	.	.	27	8	8	509	509
8	0.0081799591	TGTGCCAGCAGTTACGGACCGATTAACTACGAGCAGTACTTC	CASSYGPINYEQYF	TRBV6-2*01,TRBV6-3*01	TRBJ2-7*01	.	14	.	.	26	8	13	682	699
7	0.0071574642	TGTGCCAGCAGCTTAGTGGGTTACGAGCAGTACTTC	CASSLVGYEQYF	TRBV11-2*01	TRBJ2-7*01	.	15	.	.	21	7	7	551	551
7	0.0071574642	TGTGCCAGCAGCCGCCGGACAGGGTGGACCGAGCAGTACTTC	CASSRRTGWTEQYF	TRBV5-6*01	TRBJ2-7*01	.	11	.	.	29	7	7	491	491
7	0.0071574642	TTGGCCTGGAGTGTTATAGGGGCCGCCACCGGGGAGCTGTTTTTT	LAWSVIGAATGELFF	TRBV30*01	TRBJ2-2*01	.	13	.	.	26	7	7	1040	1040
7	0.0071574642	TGTGCCAGCAGCTTGGACCCCGAAACGCAGTATTTT	CASSLDPETQYF	TRBV5-4*01	TRBJ2-3*01	.	15	.	.	21	7	8	398	401
6	0.0061349693	TGTGCCAGCAGCCAACAGGGGATGGAGACCCAGTACTTC	CASSQQGMETQYF	TRBV7-9*01	TRBJ2-5*01	.	11	.	.	24	6	6	516	516
6	0.0061349693	TGCAGCTGTGCTCCTATAATTCACCCCTCCACTTT	CSCAPat?NSPLHF	TRBV29-1*01	TRBJ1-6*01	.	5	.	.	10	6	7	189	192
6	0.0061349693	TGCGCCAGCAGAGGGACAGGTGAATCGGAAGCTTTCTTT	CASRGTGESEAFF	TRBV5-1*01	TRBJ1-1*01	.	10	.	.	27	6	7	265	268
6	0.0061349693	TGCGCCAGCAGCTTGGCACCTACACCAGATACGCAGTATTTT	CASSLAPTPDTQYF	TRBV5-1*01	TRBJ2-3*01	.	15	.	.	25	6	6	339	339
6	0.0061349693	TGTGCCAGCAGCCATGGGTCACCACCCCTCCACTTT	CASSHGSPPLHF	TRBV13*01	TRBJ1-6*01	.	11	.	.	22	6	6	262	262
6	0.0061349693	TGTGCCAGCAGCTTAGGACTAGAGTGGGACATTCAGTACTTC	CASSLGLEWDIQYF	TRBV7-2*01	TRBJ2-4*01	.	15	.	.	28	6	6	293	293
6	0.0061349693	TGTGCCAGCAGCAGCAAACAAACAGGGGAACAGTACTTC	CASSSKQTGEQYF	TRBV7-2*01	TRBJ2-5*01	.	11	.	.	30	6	7	409	411
6	0.0061349693	TGCAGCGTTGAAGAGGGACATCCGAACACCGGGGAGCTGTTTTTT	CSVEEGHPNTGELFF	TRBV29-1*01	TRBJ2-2*01	.	13	.	.	22	6	8	798	802
5	0.0051124744	TGTGCCAGCAGTCGAGGACTCTTAAACGAAGAGACCCAGTACTTC	CASSRGLLNEETQYF	TRBV6-2*01,TRBV6-3*01	TRBJ2-5*01	.	11	.	.	25	5	5	188	188
5	0.0051124744	TGTGCCAGCAGCCTCCGGGGGGGCTCCTACAATGAGCAGTTCTTC	CASSLRGGSYNEQFF	TRBV7-9*01	TRBJ2-1*01	.	11	.	.	23	5	5	453	453
5	0.0051124744	TGTGCCAGCAGCTTAGGCGCTGAGGTCCTCTACGAGCAGTACTTC	CASSLGAEVLYEQYF	TRBV7-9*01	TRBJ2-7*01	.	15	.	.	29	5	5	340	340
5	0.0051124744	TGTGCCATCAGGGGGCGTGGGGCTCAGCTCCTACAATGAGCAGTTCTTC	CAIRGRGA??cSSYNEQFF	TRBV10-3*01	TRBJ2-1*01	.	10	.	.	27	5	6	1024	1027
5	0.0051124744	TGTGCCAGCAGCTTGGATGGATTGCCTACGTCGGGGCAGTACTTC	CASSLDGLPTSGQYF	TRBV5-4*01	TRBJ2-7*01	.	15	.	.	35	5	6	303	306
5	0.0051124744	TGTGCCAGCAGCTTAGCCGGGGGGGGTCGCTTAAGTATTTT	CASSLAgg?GGSLKYF	TRBV11-3*01	TRBJ2-3*01	.	15	.	.	33	5	5	552	552
5	0.0051124744	TGTGCGGGGCTCGGGGGCCGTGACCAAGAGACCCAGTACTTC	CAGLGGRDQETQYF	TRBV12-5*01	TRBJ2-5*01	.	4	.	.	22	5	5	450	450
4	0.0040899796	TGTGCCAGCAGCTGGAGATTTGGGGGGCAAGGGCCTCCCTACGAGCAGTACTTC	CASSWRFGGQGPPYEQYF	TRBV5-6*01	TRBJ2-7*01	.	12	.	.	37	4	4	249	249
4	0.0040899796	TGTGCCAGCAGGAATGGGAGAGAGCAGTTCTTC	CASRNGREQFF	TRBV6-5*01	TRBJ2-1*01	.	10	.	.	21	4	6	376	381
4	0.0040899796	TGTGCCAGCAGCCCCTGGGAGATCGGCTCTGGGGCCAACGTCCTGACTTTC	CASSPWEIGSGANVLTF	TRBV7-9*01	TRBJ2-6*01	.	11	.	.	26	4	4	146	146
4	0.0040899796	TGTGTCGTCTTGGGGGGGGCTTTCTATGAGCAGTTCTTC	CVVLGGAFYEQFF	TRBV14*01	TRBJ2-1*01	.	3	.	.	25	4	4	510	510
4	0.0040899796	TGTGCCAGCAGCTTACAGGGGCGGCCTGAAGCTTTCTTT	CASSLQGRPEAFF	TRBV7-2*01	TRBJ1-1*01	.	14	.	.	25	4	4	339	339
4	0.0040899796	TGTGCCAGCAGTTTTGTGGACTCTGGAAACACCATATATTTT	CASSFVDSGNTIYF	TRBV28*01	TRBJ1-3*01	.	13	.	.	20	4	4	134	134
4	0.0040899796	TGTGCCAGCAGCTCGTTAAGTGGCAATGAGCAGTTCTTC	CASSSLSGNEQFF	TRBV7-3*01	TRBJ2-1*01	.	12	.	.	23	4	5	458	461
4	0.0040899796	TGTGCCAGCAGCCCAGTCACGGGGGCCTTGGGGGAGACCCAGTACTTC	CASSPVTGALGETQYF	TRBV4-2*01	TRBJ2-5*01	.	15	.	.	33	4	5	224	226
4	0.0040899796	TGTGCCAGCAGCTCCAACTTGCGTTTTGGGGCTGAAGCTTTCTTT	CASSSNLRFGAEAFF	TRBV7-2*01	TRBJ1-1*01	.	12	.	.	31	4	4	293	293
4	0.0040899796	TGTGCCAGCAGTTTAACCCCGGGACTCTATGGCTACACCTTC	CASSLTPGLYGYTF	TRBV12-3*01,TRBV12-4*01	TRBJ1-2*01	.	14	.	.	26	4	4	238	238
4	0.0040899796	GGCGCCAGCAGCTGGGGGCCCGGGACAGGGGGCCACTACGAGCAGTACTTC	GASSWGPGTGGHYEQYF	TRBV5-1*01	TRBJ2-7*01	.	15	.	.	35	4	4	507	507
4	0.0040899796	TGTGCCAGCAGCCGCACCGGGGGAGAGGCCAAAAACATTCAGTACTTC	CASSRTGGEAKNIQYF	TRBV14*01	TRBJ2-4*01	.	12	.	.	27	4	6	796	802
4	0.0040899796	TGTGCCAGCAGCCAAACCGGGCGATACATGGATACGCAGTATTTT	CASSQTGRYMDTQYF	TRBV4-2*01	TRBJ2-3*01	.	14	.	.	30	4	4	358	358
4	0.0040899796	TGTGGGGTCTTGGGGGGGGGTCACAGATACGCAGTATTTT	CGVLGGgg??tcTDTQYF	TRBV14*01	TRBJ2-3*01	.	3	.	.	21	4	4	796	796
4	0.0040899796	TTTGCCAGCAGCTCTCTTTCGGGGGGGCGCAATGAGCAGTTCTTC	FASSSLSGGRNEQFF	TRBV7-8*01	TRBJ2-1*01	.	12	.	.	29	4	4	1053	1053
4	0.0040899796	TGTGCCAGCAGCTCATTACGGGACAGATACAATGAGCAGTTCTTC	CASSSLRDRYNEQFF	TRBV7-9*01	TRBJ2-1*01	.	12	.	.	27	4	4	322	322
4	0.0040899796	TGTGCCAGCAGCACAACAGGGGGCGATGGAAACACCATATATTTT	CASSTTGGDGNTIYF	TRBV11-1*01	TRBJ1-3*01	.	11	.	.	26	4	4	254	254
4	0.0040899796	TGTGCCAGCAGCTTAGGTGCAGGGACCCAAGAGACCCAGTACTTC	CASSLGAGTQETQYF	TRBV7-6*01	TRBJ2-5*01	.	15	.	.	26	4	4	366	366
4	0.0040899796	TGTGCCAGCAGCCCCCTCGGGGGTCACAATGAGCAGTTCTTC	CASSPLGGHNEQFF	TRBV7-9*01	TRBJ2-1*01	.	11	.	.	25	4	5	445	448
4	0.0040899796	TGTGGTCTCTTGGGGGGGGTGATGGCTACACCTTC	CGLLGgg?GDGYTF	TRBV16*01	TRBJ1-2*01	.	3	.	.	21	4	4	500	500
4	0.0040899796	TGCGCCAGCAGACCAAATGTAGACAGGGAAGAGACCCAGTACTTC	CASRPNVDREETQYF	TRBV4-1*01	TRBJ2-5*01	.	15	.	.	28	4	5	460	463
4	0.0040899796	TGTGCCAGCAGCTTAGGGGGAGGGGTAGCCAAAAACATTCAGTACTTC	CASSLGGGVAKNIQYF	TRBV7-3*01	TRBJ2-4*01	.	14	.	.	26	4	4	343	343
4	0.0040899796	TGTGCCAGCAGCTTGTTGAATCCGAAAGAGACCCAGTACTTC	CASSLLNPKETQYF	TRBV7-9*01	TRBJ2-5*01	.	13	.	.	25	4	4	470	470
3	0.0030674847	TGTGCCAGCAGTTACCGGGACATAGCGAATGAGCAGTTCTTC	CASSYRDIANEQFF	TRBV6-1*01	TRBJ2-1*01	.	11	.	.	27	3	3	186	186
3	0.0030674847	TGCAGCGTTGAGGTACAGGGGAGGAGGAATGAGCAGTTCTTC	CSVEVQGRRNEQFF	TRBV29-1*01	TRBJ2-1*01	.	10	.	.	27	3	3	290	290
3	0.0030674847	TGTGCCAGCAGCTTAGCCGGGTTTCCGGACAGAAACACCGGGGAGCTGTTTTTT	CASSLAGFPDRNTGELFF	TRBV5-6*01	TRBJ2-2*01	.	13	.	.	33	3	4	307	310
3	0.0030674847	TGCGCCAGCAGCTTGAGTACCAACGACCACGAGCAGTACTTC	CASSLSTNDHEQYF	TRBV5-1*01	TRBJ2-7*01	.	14	.	.	28	3	3	243	243
3	0.0030674847	TGTGCCTGGTCTACGGGGCTAGCGGGGGTATACGAGCAGTACTTC	CAWSTGLAGVYEQYF	TRBV30*01	TRBJ2-7*01	.	8	.	.	30	3	3	413	413
3	0.0030674847	TGTGCCAGCAGCGCCCGCCGGCGAGCGGCGAACACCGGGGAGCTGTTTTTT	CASSARRRAANTGELFF	TRBV7-2*01	TRBJ2-2*01	.	11	.	.	28	3	3	169	169
3	0.0030674847	TGTGCCAGCAGTCAGAACAGGGGAAACACTGAAGCTTTCTTT	CASSQNRGNTEAFF	TRBV14*01	TRBJ1-1*01	.	13	.	.	24	3	4	8	10
3	0.0030674847	TGTGCCAGCAGTTTATCTGTCTACGAGCAGTACTTC	CASSLSVYEQYF	TRBV27*01	TRBJ2-7*01	.	16	.	.	20	3	3	86	86
3	0.0030674847	TGTGCCAGCAGCTTAGCAGGCCAGCGGGGGGGCTACGAGCAGTACTTC	CASSLAGQRGGYEQYF	TRBV7-9*01	TRBJ2-7*01	.	16	.	.	32	3	3	176	176
3	0.0030674847	TGCGCCAGCAGCTTGGTGGGCATGCGAGGCACAGATACGCAGTATTTT	CASSLVGMRGTDTQYF	TRBV5-1*01	TRBJ2-3*01	.	15	.	.	28	3	3	206	206
3	0.0030674847	TGCGCCAGCAGCAGGTGGGGGATAGATACGCAGTATTTT	CASSRWGIDTQYF	TRBV5-1*01	TRBJ2-3*01	.	11	.	.	23	3	4	204	207
3	0.0030674847	TGCAGCGTTGAAGACAGGGGGTTTACCCCATACTATGGCTACACCTTC	CSVEDRGFTPYYGYTF	TRBV29-1*01	TRBJ1-2*01	.	13	.	.	31	3	3	130	130
3	0.0030674847	TGTGCCAGCAGTTTATCCTTTTTCCGGCAAAAACAGGGGGTCAAAAACATTCAGTACTTC	CASSLSFFRQKQGVKNIQYF	TRBV28*01	TRBJ2-4*01	.	15	.	.	41	3	3	166	166
3	0.0030674847	TGTGCCAGCATAGGGGACAGCAATCAGCCCCAGCATTTT	CASIGDSNQPQHF	TRBV2*01	TRBJ1-5*01	.	9	.	.	18	3	3	187	187
3	0.0030674847	TGTGCCAGCAGCTTAGGTTCCGGGCGGGGGGGCCGAGAGACCCAGTACTTC	CASSLGSGRGGRETQYF	TRBV7-2*01	TRBJ2-5*01	.	15	.	.	32	3	4	252	254
3	0.0030674847	TGTGCCAGCAGTATCGACAGGGGCGTGGGCACCGGGGAGCTGTTTTTT	CASSIDRGVGTGELFF	TRBV28*01	TRBJ2-2*01	.	11	.	.	29	3	4	408	411
3	0.0030674847	TGTGCCAGCAGCACCTCGAGGGGGGCCTACAATGAGCAGTTCTTC	CASSTSRGAYNEQFF	TRBV7-3*01	TRBJ2-1*01	.	11	.	.	25	3	6	319	330
3	0.0030674847	TGTGCCAGCAGCTTAGCGGTCATTCGTAGGGTACAAACTGAAGCTTTCTTT	CASSLAVIRRVQTEAFF	TRBV7-8*01	TRBJ1-1*01	.	16	.	.	36	3	3	210	210
3	0.0030674847	TGTGCCAGCAGCCAAGGGGCGGGCGGGCGACTGTTTTTT	CASSQGAGGRLFF	TRBV7-2*01	TRBJ1-4*01	.	11	.	.	29	3	4	316	319
3	0.0030674847	TGTGCCAGTAGTATACAAGGGGCCAAAAACATTCAGTACTTC	CASSIQGAKNIQYF	TRBV19*01	TRBJ2-4*01	.	14	.	.	21	3	3	111	111
3	0.0030674847	TGCAGTGCCGTCGACAGGTTCTTCTCCTACGAGCAGTACTTC	CSAVDRFFSYEQYF	TRBV20-1*01	TRBJ2-7*01	.	7	.	.	23	3	3	82	82
3	0.0030674847	TGTGCCAGCAGCTCCCGAGGGCTAGCGGGTCCTAATGAGCAGTTCTTC	CASSSRGLAGPNEQFF	TRBV7-3*01	TRBJ2-1*01	.	12	.	.	33	3	3	210	210
3	0.0030674847	TGTGCCAGCAGCTTACGACAGACAAGCACAGATACGCAGTATTTT	CASSLRQTSTDTQYF	TRBV7-2*01	TRBJ2-3*01	.	14	.	.	24	3	5	205	210
3	0.0030674847	TGTGCCAGCAGCTTTCGTCGTGGCGGGGGGGCCGTAGATACGCAGTATTTT	CASSFRRGGGAVDTQYF	TRBV11-3*01	TRBJ2-3*01	.	13	.	.	35	3	3	127	127
3	0.0030674847	TGCAGCGTTGAAGAGCTTAATTTTTATGGCTACACCTTC	CSVEELNFYGYTF	TRBV29-1*01	TRBJ1-2*01	.	13	.	.	24	3	3	302	302
3	0.0030674847	TGTGCCAGCAGCCCAGGGCCAGGAAAAAAGGATGAAAAACTGTTTTTT	CASSPGPGKKDEKLFF	TRBV7-6*01	TRBJ1-4*01	.	11	.	.	31	3	5	350	354
3	0.0030674847	TGTGCCAGCCGAGGCGTTCGGGCCAACGTCCTGACTTTC	CASRGVRANVLTF	TRBV7-2*01	TRBJ2-6*01	.	8	.	.	19	3	3	150	150
3	0.0030674847	TGTGCCAGCAGCGGCCTCGGGACTAGCGGGGGGGCAGGGAGCACAGATACGCAGTATTTT	CASSGLGTSGGAGSTDTQYF	TRBV7-2*01	TRBJ2-3*01	.	11	.	.	39	3	4	123	125
2	0.0020449898	TGTGCTATTAGCTCTTGGGGGGGCGTACGCAGTATTTT	CAISSWg?gGRTQYF	TRBV12-5*01	TRBJ2-3*01	.	6	.	.	25	2	2	1113	1113
2	0.0020449898	TGTGACTGGAGTTCAGACGTGTGCTCTTCCGATCCGATGGAATCAGTGGTATCAACGCAGAGTTCTTT	CDWSSDVCSSDc?cDGISGINAEFF	TRBV30*01	TRBJ2-1*01	.	11	.	.	60	2	3	8	11
2	0.0020449898	TGTGCCAGCTCACCGACCGGGACAGGGCCTGGCTACACCTTC	CASSPTGTGPGYTF	TRBV18*01	TRBJ1-2*01	.	13	.	.	29	2	2	71	71
2	0.0020449898	TGTGCCAGCAGCTCGACAGACAATGGCTACACCTTC	CASSSTDNGYTF	TRBV7-9*01	TRBJ1-2*01	.	12	.	.	19	2	2	210	210
2	0.0020449898	TGTGCCAGCAGCTTAGCGAGCCCAGGAACTAATGAAAAACTGTTTTTT	CASSLASPGTNEKLFF	TRBV7-2*01	TRBJ1-4*01	.	16	.	.	26	2	2	119	119
2	0.0020449898	TGCGCCAGCAGCTTGGGCTCGGGTGGAAACACCATATATTTT	CASSLGSGGNTIYF	TRBV5-1*01	TRBJ1-3*01	.	15	.	.	23	2	3	5	8
2	0.0020449898	TGCAGCGTAGACACAGGGGGCACAGATACGCAGTATTTT	CSVDTGGTDTQYF	TRBV29-1*01	TRBJ2-3*01	.	10	.	.	19	2	2	12	12
2	0.0020449898	TGTGCCAGCAGCTCTCCGGGACGGATGAACACTGAAGCTTTCTTT	CASSSPGRMNTEAFF	TRBV28*01	TRBJ1-1*01	.	10	.	.	25	2	2	12	12
2	0.0020449898	TGTGCCACTTGGACAGGGGGAGAAAATCAGCCCCAGCATTTT	CATWTGGENQPQHF	TRBV24-1*01	TRBJ1-5*01	.	7	.	.	24	2	2	71	71
2	0.0020449898	TGCAGCGCGAGTGAGGCCGGGGAGCTGTTTTTT	CSASEAGELFF	TRBV29-1*01	TRBJ2-2*01	.	6	.	.	16	2	2	10	10
2	0.0020449898	TGCAGTGCTCGGAGGACGGCTTCGAACACCGGGGAGCTGTTTTTT	CSARRTASNTGELFF	TRBV20-1*01	TRBJ2-2*01	.	8	.	.	22	2	2	88	88
2	0.0020449898	TGTGCCAGCAGCCAGCTGGACCCCCGGAGGGGGGTACAGTACTTC	CASSQLDPRRGVQYF	TRBV14*01	TRBJ2-5*01	.	13	.	.	36	2	3	175	178
2	0.0020449898	TGTGCCAGCAGCCCGATGGGACAGCCTCAAGAGACCCAGTACTTC	CASSPMGQPQETQYF	TRBV7-9*01	TRBJ2-5*01	.	11	.	.	27	2	2	105	105
2	0.0020449898	TGCGCCAGCAGCCAAGAACCCGGGACAGGGGGCGAGAAGACCCAGTACTTC	CASSQEPGTGGEKTQYF	TRBV4-1*01	TRBJ2-5*01	.	16	.	.	37	2	3	111	114
2	0.0020449898	TGTGCCAGCAGTTACGGTCAGGGGGCGCCGTACGAGCAGTACTTC	CASSYGQGAPYEQYF	TRBV6-6*01	TRBJ2-7*01	.	14	.	.	30	2	2	286	286
2	0.0020449898	TGTGCGGGGGGGGAGTCCGGGGAGCTGTTTTTT	CAGGESGELFF	TRBV30*01	TRBJ2-2*01	.	4	.	.	16	2	2	60	60
2	0.0020449898	CGTATGGCTTCTTAGGGGGGGGTAGGCCCGAGCAGTACTTC	RMAS*Ggg?GRPEQYF	TRBV16*01	TRBJ2-7*01	.	2	.	.	28	2	2	1045	1045
2	0.0020449898	TGCGCCAGCAGCCCAGGGACAGGGGGCACTGAAGCTTTCTTT	CASSPGTGGTEAFF	TRBV5-1*01	TRBJ1-1*01	.	11	.	.	26	2	3	232	234
2	0.0020449898	TGTGCCAGCAAGCAAAGGGCGGGACAGGGGATGGACAACACCATATATTT	CASKQRAGc?aGDGQHHIF	TRBV12-3*01,TRBV12-4*01	TRBJ1-3*01	.	9	.	.	31	2	3	235	242
2	0.0020449898	TGTGACTGGAGTTCAGACGTGTGCTCTTCCGATCTGATGGAATCAGTGGTATCAACGCAGAGTTCTTT	CDWSSDVCSSDc?tDGISGINAEFF	TRBV30*01	TRBJ2-1*01	.	11	.	.	60	2	11	6	2220
2	0.0020449898	TGTGCCAGCAGCCAGACCTACAACACAGATACGCAGTATTTT	CASSQTYNTDTQYF	TRBV14*01	TRBJ2-3*01	.	13	.	.	23	2	2	157	157
2	0.0020449898	TGCGCCAGCAGCTCGGACCAAATCACAGATACGCAGTATTTT	CASSSDQITDTQYF	TRBV5-1*01	TRBJ2-3*01	.	15	.	.	23	2	4	238	243
2	0.0020449898	TGTGCCAGCAGCCCCCGGACTAGCGGGGAGACCCAGTACTTC	CASSPRTSGETQYF	TRBV11-1*01	TRBJ2-5*01	.	11	.	.	27	2	3	5	8
2	0.0020449898	TGTGCCACCAACAGGGGGAATGAGCAGTTCTTC	CATNRGNEQFF	TRBV15*01	TRBJ2-1*01	.	13	.	.	18	2	3	5	7
2	0.0020449898	TGTGCCAGCAGAGGACAGGGGGAGGGATCACCCCTCCACTTT	CASRGQGEGSPLHF	TRBV2*01	TRBJ1-6*01	.	10	.	.	27	2	2	170	170
2	0.0020449898	TGCGCCAGCAGCGCGTCAGGGGCTGGTGCTCACGAGCAGTACTTC	CASSASGAGAHEQYF	TRBV5-1*01	TRBJ2-7*01	.	11	.	.	31	2	2	157	157
2	0.0020449898	TGCGCCAGCAGCTTGGGGCAGGGCATGGGCTACACCTTC	CASSLGQGMGYTF	TRBV5-1*01	TRBJ1-2*01	.	15	.	.	27	2	2	4	4
2	0.0020449898	TGTGCCAGCAGCTTGGACAGGGAGACCCAGTACTTC	CASSLDRETQYF	TRBV7-2*01	TRBJ2-5*01	.	13	.	.	21	2	4	228	233
2	0.0020449898	TGTGCCAGCAGCCCCGCTGGGGCGGGCAGGGGAAGTCAGCCCCAGCATTTT	CASSPAGAGRGSQPQHF	TRBV6-5*01	TRBJ1-5*01	.	10	.	.	35	2	2	49	49
2	0.0020449898	TGTGCCAGCAGTCGGCGCGGGTCAAGTCAGCCCCAGCATTTT	CASSRRGSSQPQHF	TRBV6-2*01,TRBV6-3*01	TRBJ1-5*01	.	11	.	.	26	2	2	121	121
2	0.0020449898	TGTGCCAGCAGCGGGGGACGAAAGGTGTTTT	CASSG??gDERCF	TRBV5-6*01	TRBJ2-3*01	.	11	.	.	24	2	3	142	144
2	0.0020449898	TGTGCCAGTAGAAGTGTTGGGCCAAGAGGAAACACCATATATTTT	CASRSVGPRGNTIYF	TRBV6-6*01	TRBJ1-3*01	.	10	.	.	27	2	6	10	20
2	0.0020449898	TGTGCCAGCACCCAAGGACTAGCGGGGAAAAAATCCTACAATGAGCAGTTCTTC	CASTQGLAGKKSYNEQFF	TRBV6-2*01,TRBV6-3*01	TRBJ2-1*01	.	9	.	.	33	2	2	4	4
2	0.0020449898	TGTGCCAGCAGTTTTAGGGACTCACAAGAGACCCAGTACTTC	CASSFRDSQETQYF	TRBV12-3*01,TRBV12-4*01	TRBJ2-5*01	.	13	.	.	24	2	2	43	43
2	0.0020449898	TGTGCCAGCAAGGTCGGGGGGACCACCACCGGGGAGCTGTTTTTT	CASKVGGTTTGELFF	TRBV19*01	TRBJ2-2*01	.	7	.	.	26	2	2	83	83
2	0.0020449898	TGCAGCGTTTTGGGGCTCCCCATGAACACTGAAGCTTTCTTT	CSVLGLPMNTEAFF	TRBV29-1*01	TRBJ1-1*01	.	8	.	.	22	2	2	17	17
2	0.0020449898	TGCGCCAGCAGCTTGAAACAGGGGGGCACTGAAGCTTTCTTT	CASSLKQGGTEAFF	TRBV5-1*01	TRBJ1-1*01	.	14	.	.	26	2	2	109	109
2	0.0020449898	TGCAGCGTTGATGGGGGGACAGGGAGGTCGAATGAGCAGTTCTTC	CSVDGGTGRSNEQFF	TRBV29-1*01	TRBJ2-1*01	.	10	.	.	30	2	2	4	4
2	0.0020449898	TGCGCCAGCAGCCCCGAAGGGAACAGAGGGAACACTGAAGCTTTCTTT	CASSPEGNRGNTEAFF	TRBV5-1*01	TRBJ1-1*01	.	11	.	.	29	2	2	201	201
2	0.0020449898	TGTGCCAGTAGTAGAACCGGGACAGATGCCTACGAGCAGTACTTC	CASSRTGTDAYEQYF	TRBV19*01	TRBJ2-7*01	.	12	.	.	28	2	3	192	195
2	0.0020449898	TGCGCCAGCAGCTTCGGACGGACCGGGGAGCTGTTTTTT	CASSFGRTGELFF	TRBV5-1*01	TRBJ2-2*01	.	13	.	.	21	2	2	318	318
2	0.0020449898	TGCGCCAGCAGCGTAGAGGGGGCAGTCTACGAGCAGTACTTC	CASSVEGAVYEQYF	TRBV5-1*01	TRBJ2-7*01	.	11	.	.	26	2	2	327	327
2	0.0020449898	TGTGCCAGCAGCTTGATGAGGCGGGGTGGCACAGATACGCAGTATTTT	CASSLMRRGGTDTQYF	TRBV7-2*01	TRBJ2-3*01	.	13	.	.	28	2	2	30	30
2	0.0020449898	TGTGCCAGCAGTTACTCGGGGGGTCGGGGCACTGAAGCTTTCTTT	CASSYSGGRGTEAFF	TRBV6-5*01	TRBJ1-1*01	.	16	.	.	29	2	2	119	119
2	0.0020449898	TGTGCCAGCAGCGCCCGCGGACTAGCGGGCGCCTACAATGAGCAGTTCTTC	CASSARGLAGAYNEQFF	TRBV7-9*01	TRBJ2-1*01	.	11	.	.	31	2	4	287	293
2	0.0020449898	TGTGCCAGCTCACGGATGAAGGGAGGCACAGATACGCAGTATTTT	CASSRMKGGTDTQYF	TRBV18*01	TRBJ2-3*01	.	12	.	.	25	2	2	6	6
2	0.0020449898	TGTGCCAGCAGCCGATGGACCGGGACCGGGAATTCACCCCTCCACTTT	CASSRWTGTGNSPLHF	TRBV7-9*01	TRBJ1-6*01	.	11	.	.	30	2	2	260	260
2	0.0020449898	TGCAGCGTTAATGCCGGCGGCTATGAGCAGTTCTTC	CSVNAGGYEQFF	TRBV29-1*01	TRBJ2-1*01	.	8	.	.	22	2	2	59	59
2	0.0020449898	TGTGCCAGCTCACCAGGACAGGCCTATGGCTACACCTTC	CASSPGQAYGYTF	TRBV18*01	TRBJ1-2*01	.	14	.	.	23	2	2	336	336
2	0.0020449898	TGCAGTGCTAATGCGCGGGGGAACACCGGGGAGCTGTTTTTT	CSANARGNTGELFF	TRBV20-1*01	TRBJ2-2*01	.	9	.	.	20	2	2	6	6
2	0.0020449898	TGTGCCAGCAGGACCGGGACAGGGAATGAAAAACTGTTTTTT	CASRTGTGNEKLFF	TRBV12-3*01,TRBV12-4*01	TRBJ1-4*01	.	10	.	.	24	2	2	31	31
2	0.0020449898	TGTGCCAGCAGCCAGGGACAGGGGTATTACGAGCAGTACTTC	CASSQGQGYYEQYF	TRBV7-9*01	TRBJ2-7*01	.	11	.	.	27	2	2	10	10
2	0.0020449898	TGTGCCAGTAGTATTGGGGGACGCAAGAACACCGGGGAGCTGTTTTTT	CASSIGGRKNTGELFF	TRBV19*01	TRBJ2-2*01	.	13	.	.	26	2	2	94	94
2	0.0020449898	TGTGCCAGCAGCCAAGTTCCCACCGAAGCTTTCTTT	CASSQVPTEAFF	TRBV3-1*01	TRBJ1-1*01	.	15	.	.	20	2	2	130	130
2	0.0020449898	TGTGCCACCAACTCAGGGGTTGACTATGGCTACACCTTC	CATNSGVDYGYTF	TRBV28*01	TRBJ1-2*01	.	9	.	.	22	2	2	131	131
2	0.0020449898	TGTGCCAGCAGAATAAGGGAGACCTCCTACGAGCAGTACTTC	CASRIRETSYEQYF	TRBV12-3*01,TRBV12-4*01	TRBJ2-7*01	.	10	.	.	23	2	2	91	91
2	0.0020449898	TGTGCCAGCAGCCCACGGACAGGGGCTGGAAACACCATATATTTT	CASSPRTGAGNTIYF	TRBV7-6*01	TRBJ1-3*01	.	11	.	.	25	2	2	100	100
2	0.0020449898	TGCGCCAGCAGCCTAAGCCGTAGCAGGGCAAACAATGAGCAGTTCTTC	CASSLSRSRANNEQFF	TRBV4-3*01	TRBJ2-1*01	.	12	.	.	31	2	2	60	60
2	0.0020449898	TGTGCCAGCAGCCGACAGGGAGAGACCCAGTACTTC	CASSRQGETQYF	TRBV7-7*01	TRBJ2-5*01	.	11	.	.	20	2	2	181	181
2	0.0020449898	TGTGCCAGCAGCTTAGTCCGGAACACTGAAGCTTTCTTT	CASSLVRNTEAFF	TRBV11-2*01	TRBJ1-1*01	.	15	.	.	20	2	3	153	156
2	0.0020449898	TGTGCCAAAACAGGGACAGGGGAGAACACCGGGGAGCTGTTTTTT	CAKTGTGENTGELFF	TRBV19*01	TRBJ2-2*01	.	6	.	.	23	2	2	42	42
2	0.0020449898	TGCAGCATTTCAGAGAACACCGGGGAGCTGTTTTTT	CSISENTGELFF	TRBV29-1*01	TRBJ2-2*01	.	8	.	.	14	2	2	4	4
2	0.0020449898	TGTGCCAGCAGCCGGGCAGTCGGTATTTCACCCCTCCACTTT	CASSRAVGISPLHF	TRBV9*01	TRBJ1-6*01	.	11	.	.	23	2	2	304	304
2	0.0020449898	TGCAGCGTGGTGCGACAGGGCGACTACGAGCAGTACTTC	CSVVRQGDYEQYF	TRBV29-1*01	TRBJ2-7*01	.	7	.	.	23	2	2	4	4
2	0.0020449898	TGCGCCAGCAGCTTGGGAGGGAATTTTCGGGAACGCACTGAAGCTTTCTTT	CASSLGGNFRERTEAFF	TRBV5-1*01	TRBJ1-1*01	.	15	.	.	35	2	2	145	145
2	0.0020449898	TGCGCCAGCAGCCAATCCCAGGGAGGTTCACCCCTCCACTTT	CASSQSQGGSPLHF	TRBV4-3*01	TRBJ1-6*01	.	14	.	.	26	2	3	225	227
2	0.0020449898	TGTGCCAGCAGTTTGGGGCCCAACCGACGAGAGACCCAGTACTTC	CASSLGPNRRETQYF	TRBV28*01	TRBJ2-5*01	.	13	.	.	29	2	2	331	331
2	0.0020449898	TGTGCCAGCAGAACCGGGACTAGCAGGATGTTTTTT	CASRTGTSRMFF	TRBV28*01	TRBJ2-2*01	.	10	.	.	28	2	3	20	22
2	0.0020449898	TGTGCCAGCAGTTACCCGGGACTAGCGGGGGGGACGAACACCGGGGAGCTGTTTTTT	CASSYPGLAGGTNTGELFF	TRBV6-6*01	TRBJ2-2*01	.	14	.	.	34	2	3	455	457
2	0.0020449898	TGCAGCGTCCTGACTAGCGGGGGGTCCAATGAGCAGTTCTTC	CSVLTSGGSNEQFF	TRBV29-1*01	TRBJ2-1*01	.	7	.	.	26	2	2	4	4
2	0.0020449898	TGTGCCTGGAGTTGGAGGGGTGAAGCTTTCTTT	CAWSWRGEAFF	TRBV30*01	TRBJ1-1*01	.	11	.	.	20	2	2	14	14
2	0.0020449898	TGCGCCAGCAGCTTGGCCGGGTCAGTAACCGGGGAGCTGTTTTTT	CASSLAGSVTGELFF	TRBV5-1*01	TRBJ2-2*01	.	15	.	.	27	2	2	45	45
2	0.0020449898	TGTGCCAGCAGCTTAGAACCACAGGGAATGCGGACCCAGTACTTC	CASSLEPQGMRTQYF	TRBV7-9*01	TRBJ2-5*01	.	15	.	.	32	2	3	156	158
2	0.0020449898	TGTGCCAGCAGCCGACAGGGGGCCGATCAGCCCCAGCATTTT	CASSRQGADQPQHF	TRBV7-9*01	TRBJ1-5*01	.	11	.	.	25	2	2	8	8
2	0.0020449898	TGCGCCAGCAGCCTAGCGGAGACCCAGTACTTC	CASSLAETQYF	TRBV5-1*01	TRBJ2-5*01	.	11	.	.	18	2	2	273	273
2	0.0020449898	TTGCGCCAGCAGCTTGGGGCAGGGCATGGGCTACACCTTC	LRQQLGgc??agGMGYTF	TRBV5-1*01	TRBJ1-2*01	.	16	.	.	28	2	5	523	533
2	0.0020449898	TGTGCCAGTAGTCGGGACAGAAACACCGGGGAGCTGTTTTTT	CASSRDRNTGELFF	TRBV19*01	TRBJ2-2*01	.	11	.	.	21	2	2	9	9
2	0.0020449898	TGTGCCAGCAGTTACGCGGGACTAGCGGGGGGGCGCGAGCAGTTCTTC	CASSYAGLAGGREQFF	TRBV27*01	TRBJ2-1*01	.	12	.	.	36	2	2	25	25
1	0.0010224949	TGTACCAGCAGCCGCACCGGGGGAGAGGCCAAAAACATTCAGTACTTC	CTSSRTGGEAKNIQYF	TRBV14*01	TRBJ2-4*01	.	12	.	.	27	1	1	2	2
1	0.0010224949	TGTGCCAGTAGTATGACCGCTTCTGGGGTAAAGGGCACTGAAGCTTTCTTT	CASSMTASGVKGTEAFF	TRBV19*01	TRBJ1-1*01	.	13	.	.	35	1	1	6	6
1	0.0010224949	TGCGCCAGCAGCCCTTGGCTAGCGGGGGGCACTTACAATGAGCAGTTCTTC	CASSPWLAGGTYNEQFF	TRBV5-1*01	TRBJ2-1*01	.	11	.	.	33	1	1	75	75
1	0.0010224949	TGCAGTGCTTTCCCGGGACAAACGAACACTGAAGCTTTCTTT	CSAFPGQTNTEAFF	TRBV20-1*01	TRBJ1-1*01	.	8	.	.	23	1	1	3	3
1	0.0010224949	TGTGCCAGCAGCTTAGGTGACGGGGGAGAAGATACGCAGTATTTT	CASSLGDGGEDTQYF	TRBV7-3*01	TRBJ2-3*01	.	14	.	.	29	1	1	2	2
1	0.0010224949	TGTGCCAGCTCACGGCTAGCGGGGAGGGGCGATGAGCAGTTCTTC	CASSRLAGRGDEQFF	TRBV18*01	TRBJ2-1*01	.	12	.	.	31	1	1	7	7
1	0.0010224949	TGTGCAAGCAGTCAGAACAGGGGAAACACTGAAGCTTTCTTT	CASSQNRGNTEAFF	TRBV14*01	TRBJ1-1*01	.	13	.	.	24	1	1	2	2
1	0.0010224949	TGTGCCAGCAGCTTGGTTCTGTCACAAAGAACCTACGAGCAGTACTTC	CASSLVLSQRTYEQYF	TRBV5-6*01	TRBJ2-7*01	.	15	.	.	31	1	1	3	3
1	0.0010224949	TGCGCCAGCAGGGACAGATACCTCCTTCATGCACCTTC	CASRDRt?aPPSCTF	TRBV4-3*01	TRBJ1-2*01	.	10	.	.	31	1	1	2	2
1	0.0010224949	TGCGCCAGCAGCTTCGGGGTCACGGAAAACACCATATATTTT	CASSFGVTENTIYF	TRBV5-1*01	TRBJ1-3*01	.	13	.	.	26	1	1	4	4
1	0.0010224949	TGTGCCAGCAGCACCCAGACAGGGGTGGGGGAGCAGTACTTC	CASSTQTGVGEQYF	TRBV7-2*01	TRBJ2-7*01	.	11	.	.	30	1	1	46	46
1	0.0010224949	TGTGCCAGCAGCTTAAGGGCGAACACCGGGGAGCTGTTTTTT	CASSLRANTGELFF	TRBV11-2*01	TRBJ2-2*01	.	14	.	.	19	1	1	23	23
1	0.0010224949	TGTGCCAGCAGCTCCCCGGGACACTCTGGAAACACCATATATTTT	CASSSPGHSGNTIYF	TRBV14*01	TRBJ1-3*01	.	11	.	.	23	1	1	2	2
1	0.0010224949	TGTGCCAGCGTTGCCGACACTGAAGCTTTCTTT	CASVADTEAFF	TRBV6-2*01,TRBV6-3*01	TRBJ1-1*01	.	8	.	.	16	1	1	24	24
1	0.0010224949	TGTGCCAGCAGACCTAGCGGGAGTGGTAATACGCAGTATTTT	CASRPSGSGNTQYF	TRBV28*01	TRBJ2-3*01	.	10	.	.	28	1	1	2	2
1	0.0010224949	TGAGCTAGTGGGGGGAGAGCAGTTCTTC	*ASGgg??gaEQFF	TRBV12-5*01	TRBJ2-1*01	.	10	.	.	16	1	1	4	4
1	0.0010224949	TGTGCCAGTACCTCAGGTGCCTCTGGAAACACCATATATTTT	CASTSGASGNTIYF	TRBV19*01	TRBJ1-3*01	.	9	.	.	20	1	1	11	11
1	0.0010224949	TGTGCCAGCAGTCCGTACAGGGGGCGGAGGACTGAAGCTTTCTTT	CASSPYRGRRTEAFF	TRBV28*01	TRBJ1-1*01	.	11	.	.	30	1	1	4	4
1	0.0010224949	TGTGCCGGTTTCGAGAGTTCCACCGGGGAGCTGTTTTTT	CAGFESSTGELFF	TRBV28*01	TRBJ2-2*01	.	5	.	.	20	1	1	28	28
1	0.0010224949	TGCGCCAGCAGCTTGTCTGACGACAGTGAGCAGTTCTTC	CASSLSDDSEQFF	TRBV5-1*01	TRBJ2-1*01	.	14	.	.	22	1	2	136	139
1	0.0010224949	TGCTCAGGGACGCAGAGGGAGTGGCTACACCTTC	CSGTQag??ggSGYTF	TRBV5-1*01	TRBJ1-2*01	.	2	.	.	21	1	1	5	5
1	0.0010224949	TGCAGCGTTGAAGATCTTCGCGCGGGCTTCTATGGCTACACCTTC	CSVEDLRAGFYGYTF	TRBV29-1*01	TRBJ1-2*01	.	13	.	.	29	1	1	2	2
1	0.0010224949	TGTGCCAGCAGCCCCCAGGACCGCTCGAACACTGAAGCTTTCTTT	CASSPQDRSNTEAFF	TRBV14*01	TRBJ1-1*01	.	12	.	.	26	1	1	2	2
1	0.0010224949	TGCAGCGCGCAGGTACCCCAAGAGACCCAGTACTTC	CSAQVPQETQYF	TRBV29-1*01	TRBJ2-5*01	.	6	.	.	17	1	1	2	2
1	0.0010224949	TGTGCCGCGTCTCGGGGCTGTGAGCCAAAAACATTCAGTACTTC	CAASRGCg?aAKNIQYF	TRBV16*01	TRBJ2-4*01	.	5	.	.	22	1	1	2	2
1	0.0010224949	TGTGCCATCAGTGAGGGACAGGGGGCGGAAGGCTACACCTTC	CAISEGQGAEGYTF	TRBV10-3*01	TRBJ1-2*01	.	14	.	.	30	1	1	53	53
1	0.0010224949	TGTGCCTGGGGGGGATACTTCTTAGTCGAGCAGTACTTC	CAWGGYFLVEQYF	TRBV30*01	TRBJ2-7*01	.	8	.	.	26	1	1	15	15
1	0.0010224949	TGTGCCAGCAGTTACGAGAGAAACACAGATACGCAGTATTTT	CASSYERNTDTQYF	TRBV6-2*01,TRBV6-3*01	TRBJ2-3*01	.	14	.	.	23	1	1	39	39
1	0.0010224949	TGCGCCAGCAGCTTCGGACCGAGCACAGATACGCAGTATTTT	CASSFGPSTDTQYF	TRBV5-1*01	TRBJ2-3*01	.	13	.	.	21	1	1	8	8
1	0.0010224949	TGCAGTGCTAGACTGGTGGGCCGAGGCACAGATACGCAGTATTTT	CSARLVGRGTDTQYF	TRBV20-1*01	TRBJ2-3*01	.	11	.	.	25	1	1	40	40
1	0.0010224949	TGCAGCGTTGACAGGGAAAGAACCGGGGAGCTGTTTTTT	CSVDRERTGELFF	TRBV29-1*01	TRBJ2-2*01	.	10	.	.	21	1	1	6	6
1	0.0010224949	TGCAGCGTTCGTCGACAGTGCTTC	CSVRRQCF	TRBV29-1*01	TRBJ2-4*01	.	8	.	.	15	1	1	2	2
1	0.0010224949	TGTGACTGGAGTTCAGACGTGTGCTCTTCCGATCCGATGGAATCAGTGGTATCAACGCAGAGTACTTC	CDWSSDVCSSDc?cDGISGINAEYF	TRBV30*01	TRBJ2-7*01	.	11	.	.	60	1	1	4	4
1	0.0010224949	TGTGCCAGCAGTTACGGCCCGGGGGGGCCGGAAAATGAGCAGTTCTTC	CASSYGPGGPENEQFF	TRBV6-2*01,TRBV6-3*01	TRBJ2-1*01	.	14	.	.	33	1	1	20	20
1	0.0010224949	TGTGCCAGCAGCGAGAGGGGCCCTTTATTCGGGGAGCAGTACTTC	CASSERGPLFGEQYF	TRBV9*01	TRBJ2-7*01	.	12	.	.	33	1	1	11	11
1	0.0010224949	TGTGACTGGAGTTCAGACGTGTGCTCTTCCGATCTGATGGAATCAGTGGTATCAACGCAGAGCATTTT	CDWSSDVCSSDc?tDGISGINAEHF	TRBV30*01	TRBJ1-5*01	.	11	.	.	60	1	4	2	18
1	0.0010224949	GGGTGCGTTGAACTCTTGGGGGGAGTCTAAAGAGCAGTACTTC	GCVELLG??gESKEQYF	TRBV29-1*01	TRBJ2-7*01	.	11	.	.	31	1	1	2	2
1	0.0010224949	TGTGCCAGCAGTGAAACCAACAGAGACAATCAGCCCCAGCATTTT	CASSETNRDNQPQHF	TRBV2*01	TRBJ1-5*01	.	14	.	.	26	1	1	3	3
1	0.0010224949	TGTGCCATCAGTGAGTCGACGGGGTCCTACGAGCAGTACTTC	CAISESTGSYEQYF	TRBV10-3*01	TRBJ2-7*01	.	16	.	.	24	1	1	9	9
1	0.0010224949	TGCAGCGTGAGGGGATCCAACACCGGGGAGCTGTTTTTT	CSVRGSNTGELFF	TRBV29-1*01	TRBJ2-2*01	.	7	.	.	18	1	1	3	3
1	0.0010224949	TGTGGCACCAACAGGGGGAATGAGCAGTTCTTC	CGTNRGNEQFF	TRBV24-1*01	TRBJ2-1*01	.	9	.	.	18	1	2	4	6
1	0.0010224949	TGTGCCAGCAGCTTAACGGGATCCGCTAATTCACCCCTCCACTTT	CASSLTGSANSPLHF	TRBV7-3*01	TRBJ1-6*01	.	16	.	.	26	1	1	2	2
1	0.0010224949	TTGGCTAGTGGGGGGAGAGCAGTTCTTC	LASGgg??gaEQFF	TRBV12-5*01	TRBJ2-1*01	.	10	.	.	16	1	1	2	2
1	0.0010224949	TGCAGCGTTGAATGGAGCGGGGGCCGTAATGAGCAGTTCTTC	CSVEWSGGRNEQFF	TRBV29-1*01	TRBJ2-1*01	.	11	.	.	27	1	1	2	2
1	0.0010224949	TGTGCCAGCAGGAAAACAGGGGCCACCCACGAGCAGTACTTC	CASRKTGATHEQYF	TRBV6-2*01,TRBV6-3*01	TRBJ2-7*01	.	10	.	.	25	1	1	39	39
1	0.0010224949	TGTGCCAGCAGCTCACTCTTACAAGAGACCCAGTACTTC	CASSSLLQETQYF	TRBV5-6*01	TRBJ2-5*01	.	12	.	.	21	1	1	8	8
1	0.0010224949	TGTGCCAGTCTGGGGGACAGCACTACGAGCAGTACTTC	CASLGDa?gHYEQYF	TRBV5-8*01	TRBJ2-7*01	.	7	.	.	22	1	1	2	2
1	0.0010224949	TGTCCTAGGCCTCCAGGCTGTGAGCACAGATACGCAGTATTTT	CPRPPGC??gSTDTQYF	TRBV12-5*01	TRBJ2-3*01	.	7	.	.	22	1	1	4	4
1	0.0010224949	TGTGACTGGAGTTCAGACGTGTGCTCTTCCGATCTGATGGAATCAGTGGTATCAACGCAGAGTAATTT	CDWSSDVCSSDc?tDGISGINAE*F	TRBV30*01	TRBJ2-3*01	.	11	.	.	60	1	1	2	2
1	0.0010224949	TGTGCCAGCAGCTTAGCGCAGGGCGGGGACACTGAAGCTTTCTTT	CASSLAQGGDTEAFF	TRBV7-9*01	TRBJ1-1*01	.	16	.	.	28	1	1	2	2
1	0.0010224949	TGTGCCAGCAGCAATAAAGGACAGATTCACGAGCAGTACTTC	CASSNKGQIHEQYF	TRBV13*01	TRBJ2-7*01	.	11	.	.	28	1	1	2	2
1	0.0010224949	TGTGCCAGCAAGATACTACAAGAGACCCAGTACTTC	CASKILQETQYF	TRBV6-4*01	TRBJ2-5*01	.	9	.	.	18	1	1	4	4
1	0.0010224949	TGTGCCAGCTCGTCGGGACAGGGGGCCACTGAAGCTTTCTTT	CASSSGQGATEAFF	TRBV9*01	TRBJ1-1*01	.	8	.	.	26	1	1	10	10
1	0.0010224949	TGTGCCAGCAGTTACAGGGACCCAGGACGGCCGATGTACGATACGCAGTATTTT	CASSYRDPGRPMYDTQYF	TRBV6-5*01	TRBJ2-3*01	.	14	.	.	39	1	1	6	6
1	0.0010224949	TGTGCCAGCAGCATCTCGGGACAGATGAACACTGAAGCTTTCTTT	CASSISGQMNTEAFF	TRBV7-9*01	TRBJ1-1*01	.	11	.	.	25	1	1	4	4
1	0.0010224949	TGTGCCAGCAGCTTGGGGGGTTCGGTGAGTTCACCCCTCCACTTT	CASSLGGSVSSPLHF	TRBV7-9*01	TRBJ1-6*01	.	13	.	.	29	1	2	153	156
1	0.0010224949	TGCAGCGCCCGGACTAGCGGGGGGTTCACCGGGGAGCTGTTTTTT	CSARTSGGFTGELFF	TRBV29-1*01	TRBJ2-2*01	.	6	.	.	26	1	1	2	2
1	0.0010224949	TGTGCCAGCAGGGAAGGACGGACCATTAACTATGGCTACACCTTC	CASREGRTINYGYTF	TRBV6-1*01	TRBJ1-2*01	.	15	.	.	26	1	3	3	37
1	0.0010224949	TGTGCCAGCAGCTTAGGGGATTCAGACAGGGATCGTTGGTATTTT	CASSLGDSDRDRWYF	TRBV7-9*01	TRBJ2-3*01	.	15	.	.	38	1	1	6	6
1	0.0010224949	TGCGCCAGCAGCCGGGACAGCAATAGACTAAATTCACCCCTCCACTTT	CASSRDSNRLNSPLHF	TRBV5-1*01	TRBJ1-6*01	.	11	.	.	30	1	1	3	3
1	0.0010224949	TGCAGCGTTGAAGTTGGACCGACGGGCGAGCAGTACTTC	CSVEVGPTGEQYF	TRBV29-1*01	TRBJ2-7*01	.	12	.	.	26	1	1	4	4
1	0.0010224949	TGCAGTGCTAGAGGAGACTCATACACAGATACGCAGTATTTT	CSARGDSYTDTQYF	TRBV20-1*01	TRBJ2-3*01	.	12	.	.	23	1	2	16	18
1	0.0010224949	TGTGCCAGCAGCCCTAGCGGGCCCCAGGCCAAAAACATTCAGTACTTC	CASSPSGPQAKNIQYF	TRBV7-3*01	TRBJ2-4*01	.	11	.	.	27	1	1	2	2
1	0.0010224949	TGCGCCAGCAGCGAGGCGAACACCGGGGAGCTGTTTTTT	CASSEANTGELFF	TRBV5-1*01	TRBJ2-2*01	.	11	.	.	16	1	1	2	2
1	0.0010224949	TGTGAGGTCTTGGGGGGGGGTCACAGATACGCAGTATTTT	CEVLGGgg??tcTDTQYF	TRBV14*01	TRBJ2-3*01	.	3	.	.	21	1	1	5	5
1	0.0010224949	TGCAGCGTCACTCTTCCGGGGTACGAGCAGTACTTC	CSVTLPGYEQYF	TRBV29-1*01	TRBJ2-7*01	.	7	.	.	21	1	1	2	2
1	0.0010224949	TGCGCCAGCAGCTTGGAGTTGCGGGGACCGGGAACTGAAGCTTTCTTT	CASSLELRGPGTEAFF	TRBV5-1*01	TRBJ1-1*01	.	15	.	.	33	1	1	5	5
1	0.0010224949	TGTGCCAGCAGCCTCCGGGACGAGGTCGACTACGAGCAGTACTTC	CASSLRDEVDYEQYF	TRBV7-9*01	TRBJ2-7*01	.	11	.	.	29	1	1	2	2
1	0.0010224949	TGCAGCGTTGTTGGGGGCTCGGGAGAGACCCAGTACTTC	CSVVGGSGETQYF	TRBV29-1*01	TRBJ2-5*01	.	9	.	.	23	1	1	2	2
1	0.0010224949	TGCGCCAGCAGCTTGGGATATCAAGAGCAGTTCTTC	CASSLGYQEQFF	TRBV5-1*01	TRBJ2-1*01	.	15	.	.	24	1	1	2	2
1	0.0010224949	TGTGCCAGCAGCTCCCCCCCCAACACTGAAGCTTTCTTT	CASSSPPNTEAFF	TRBV7-3*01	TRBJ1-1*01	.	12	.	.	21	1	2	2	4
1	0.0010224949	TGCAGTGCAACTAAGACCGGGGAGCTGTTTTTT	CSATKTGELFF	TRBV20-1*01	TRBJ2-2*01	.	7	.	.	12	1	1	67	67
1	0.0010224949	TGTGCCAGCAGCCAACTCCTACAGGGCTCGACGTACTTC	CASSQLLQGSTYF	TRBV14*01	TRBJ2-5*01	.	14	.	.	32	1	1	10	10
1	0.0010224949	TGTGCCAGCAGTTACAGGGCCTACGAGCAGTACTTC	CASSYRAYEQYF	TRBV6-2*01,TRBV6-3*01	TRBJ2-7*01	.	14	.	.	19	1	1	60	60
1	0.0010224949	TGCAGCGTTGAGGGCGGGGGCCCCTCCTACGAGCAGTACTTC	CSVEGGGPSYEQYF	TRBV29-1*01	TRBJ2-7*01	.	10	.	.	23	1	1	4	4
1	0.0010224949	TGTGCCAGCAGCCTCGGACTAGCGGGGACCGGGGAGCTGTTTTTT	CASSLGLAGTGELFF	TRBV7-8*01	TRBJ2-2*01	.	11	.	.	27	1	1	2	2
1	0.0010224949	AGTGCCATCTT	Sgc?HL	TRBV10-3*01	TRBJ1-3*01	.	8	.	.	6	1	1	3	3
1	0.0010224949	TGTGCCAGCAGCCCTCGGACGGGACAGGGAGCTTTCTTT	CASSPRTGQGAFF	TRBV7-9*01	TRBJ1-1*01	.	11	.	.	29	1	2	172	174
1	0.0010224949	TGCAGCGTTGAATGGGGTGGTGGCTATGGCTACACCTTC	CSVEWGGGYGYTF	TRBV29-1*01	TRBJ1-2*01	.	11	.	.	23	1	1	4	4
1	0.0010224949	GGTGCCAGCAGCTTAGATTGGGGGAGTAACTATGGCTACACCTTC	GASSLDWGSNYGYTF	TRBV11-3*01	TRBJ1-2*01	.	16	.	.	26	1	1	2	2
1	0.0010224949	TGTGCTACTAGCTCTTGGGGGGGCGTACGCAGTATTTT	CATSSWg?gGRTQYF	TRBV12-5*01	TRBJ2-3*01	.	6	.	.	25	1	1	6	6
1	0.0010224949	CGTGCCACCAACAGGGGGAATGAGCAGTTCTTC	RATNRGNEQFF	TRBV24-1*01	TRBJ2-1*01	.	9	.	.	18	1	1	4	4
1	0.0010224949	TGCAGTGCTAGAACGGGGGCGTTAGATACGCAGTATTTT	CSARTGALDTQYF	TRBV20-1*01	TRBJ2-3*01	.	11	.	.	23	1	1	17	17
1	0.0010224949	TGTGCCAGCAGTTTTGTCGGGGGGGCATCAGGGGAGCAGTACTTC	CASSFVGGASGEQYF	TRBV28*01	TRBJ2-7*01	.	13	.	.	33	1	1	4	4
1	0.0010224949	TGTGCCAGCAGCTTAGGGGCAGGGGGCCCCTATGGCTACACCTTC	CASSLGAGGPYGYTF	TRBV11-3*01	TRBJ1-2*01	.	15	.	.	29	1	1	2	2
1	0.0010224949	TGTGCCAGCAGCTTGGGACGGAACACTGAAGCTTTCTTT	CASSLGRNTEAFF	TRBV7-2*01	TRBJ1-1*01	.	13	.	.	20	1	1	2	2
1	0.0010224949	TGTGCGGGGGGGGAGTCCGGGGAGCTGTTTTTT	CAGGESGELFF	TRBV7-8*01	TRBJ2-2*01	.	4	.	.	16	1	1	3	3
1	0.0010224949	TGCAGCGTTGGGGGAAGGACTGAAGCTTTCTTT	CSVGGRTEAFF	TRBV29-1*01	TRBJ1-1*01	.	9	.	.	18	1	1	4	4
1	0.0010224949	TGTGCCAGCAGTTACGAGGGAGTCTCCTACAATGAGCAGTTCTTC	CASSYEGVSYNEQFF	TRBV6-2*01,TRBV6-3*01	TRBJ2-1*01	.	14	.	.	23	1	1	3	3
1	0.0010224949	TGTGCCAGCAGTTACTCGAGATCCCACAATGAGCAGTTCTTC	CASSYSRSHNEQFF	TRBV6-5*01	TRBJ2-1*01	.	16	.	.	21	1	1	6	6
1	0.0010224949	TGTGCCAGCAGTCTCCCCCATCCGGGACTAGCGGTAGAGACCCAGTACTTC	CASSLPHPGLAVETQYF	TRBV12-3*01,TRBV12-4*01	TRBJ2-5*01	.	11	.	.	35	1	1	4	4
1	0.0010224949	TGCAGTGCTAGACCCCCTAGCGGGAGCACAGATACGCAGTATTTT	CSARPPSGSTDTQYF	TRBV20-1*01	TRBJ2-3*01	.	11	.	.	24	1	1	2	2
1	0.0010224949	TGTGCCAGCAGTTTAGGAACCGCTTTTTTCGAGCGGCGTGGGTATGAGCAGTTCTTC	CASSLGTAFFERRGYEQFF	TRBV12-3*01,TRBV12-4*01	TRBJ2-1*01	.	15	.	.	43	1	1	67	67
1	0.0010224949	TGCGCCAGCAGCTTGGCCCAGACGAACACCGGGGAGCTGTTTTTT	CASSLAQTNTGELFF	TRBV5-1*01	TRBJ2-2*01	.	15	.	.	22	1	1	4	4
1	0.0010224949	TGTGCCAGTACCGGGACAGCGAACACCGGGGAGCTGTTTTTT	CASTGTANTGELFF	TRBV6-2*01,TRBV6-3*01	TRBJ2-2*01	.	7	.	.	19	1	1	23	23
1	0.0010224949	TGTGCCAGCAGCTTATTAGGACTAGCGGGGGGGCCTGAGACCCAGTACTTC	CASSLLGLAGGPETQYF	TRBV7-2*01	TRBJ2-5*01	.	14	.	.	36	1	1	5	5
1	0.0010224949	TCTGCCACCAACAGGGGGAATGAGCAGTTCTTC	SATNRGNEQFF	TRBV24-1*01	TRBJ2-1*01	.	9	.	.	18	1	1	2	2
1	0.0010224949	TGTGCCAGCTCACCCGGGACTAGCGGGGGGGCCGGCGAGCAGTACTTC	CASSPGTSGGAGEQYF	TRBV18*01	TRBJ2-7*01	.	13	.	.	35	1	1	12	12
1	0.0010224949	TGTTTTGTCTTAGGGGGGACAGGGGAAACGAGCAGTACTTC	CFVLGGac?RGNEQYF	TRBV3-1*01	TRBJ2-7*01	.	2	.	.	27	1	1	2	2
1	0.0010224949	TGTGCCAGCAGTATAGGGACAGGGCGGGAGACCCAGTACTTC	CASSIGTGRETQYF	TRBV6-1*01	TRBJ2-5*01	.	11	.	.	27	1	1	27	27
1	0.0010224949	TGTGCTAGTGGTTCCGAGTATCAGCCCCAGCATTTT	CASGSEYQPQHF	TRBV12-5*01	TRBJ1-5*01	.	12	.	.	19	1	1	11	11
1	0.0010224949	TGTGCCAGCAGCCGTGATGGATCCTACGAGCAGTACTTC	CASSRDGSYEQYF	TRBV7-2*01	TRBJ2-7*01	.	11	.	.	21	1	1	2	2
1	0.0010224949	TGCAGCGTTGAACGCTCAGGGGGGGGTTACAATGAGCAGTTCTTC	CSVERSGGGYNEQFF	TRBV29-1*01	TRBJ2-1*01	.	11	.	.	27	1	1	2	2
1	0.0010224949	TGTGCCAGCAGCTGGGGGAGGTACACAGATACGCAGTATTTT	CASSWGRYTDTQYF	TRBV27*01	TRBJ2-3*01	.	10	.	.	23	1	1	81	81
1	0.0010224949	TGCAGTGCTAGAGGGCGGGGGCTGACAATGAGCAGTTCTTC	CSARGRgg?ADNEQFF	TRBV20-1*01	TRBJ2-1*01	.	12	.	.	24	1	1	2	2
1	0.0010224949	TGTGCCACCAACAGGGGGAATGAGCAGTTCTTC	CATNRGNEQFF	TRBV27*01	TRBJ2-1*01	.	9	.	.	18	1	1	2	2
1	0.0010224949	TGCGCCAGCAGTGAAGTAGGGCTCGTGAGAGCTTTCTTT	CASSEVGLVRAFF	TRBV10-2*01	TRBJ1-1*01	.	13	.	.	29	1	1	15	15
1	0.0010224949	TGCAGCGTTGAAGATTCAGATACGCAGTATTTT	CSVEDSDTQYF	TRBV29-1*01	TRBJ2-3*01	.	13	.	.	16	1	1	3	3
1	0.0010224949	TGTCCTGGGCCTCCAGGCTGTGAGCACAGATACGCAGTATTTT	CPGPPGC??gSTDTQYF	TRBV12-5*01	TRBJ2-3*01	.	5	.	.	22	1	1	2	2
1	0.0010224949	TGCAGCGTCGTCGCGAACACCGGGGAGCTGTTTTTT	CSVVANTGELFF	TRBV29-1*01	TRBJ2-2*01	.	7	.	.	13	1	1	2	2
1	0.0010224949	TGTGCCAGCAGCCCCCACAGGGGTAGCGGGAGGGGTATCGCAGATACGCAGTATTTT	CASSPHRGSGRGIADTQYF	TRBV3-1*01	TRBJ2-3*01	.	12	.	.	40	1	1	2	2
1	0.0010224949	TGTGCTAGTATGGTTTTTT	CAS??aWFF	TRBV12-5*01	TRBJ1-4*01	.	15	.	.	12	1	1	6	6
1	0.0010224949	TGCAGCGTTGCATCAGGGGTTATTACAGGCTACACCTTC	CSVASGVITGYTF	TRBV29-1*01	TRBJ1-2*01	.	9	.	.	27	1	1	2	2
1	0.0010224949	TGTGCCAGCAGTGAACATGGGACAGGGGGCGATACGCAGTATTTT	CASSEHGTGGDTQYF	TRBV25-1*01	TRBJ2-3*01	.	14	.	.	30	1	1	3	3
1	0.0010224949	TGCAGCGTCTTTCGGGGAAACAATGAGCAGTTCTTC	CSVFRGNNEQFF	TRBV29-1*01	TRBJ2-1*01	.	7	.	.	19	1	1	4	4
1	0.0010224949	GAGTCCAGCAGCTTGTTCGTAGGCGGGAGGAGCAACAATGAGCAGTTCTTC	ESSSLFVGGRSNNEQFF	TRBV5-5*01	TRBJ2-1*01	.	14	.	.	34	1	1	2	2
1	0.0010224949	TGTGCCAGCGGGAACACCGGGGAGCTGTTTTTT	CASGNTGELFF	TRBV7-6*01	TRBJ2-2*01	.	8	.	.	11	1	1	2	2
1	0.0010224949	TGCAGCGTTGACCCCCGCGAAAACATTCAGTACTTC	CSVDPRENIQYF	TRBV29-1*01	TRBJ2-4*01	.	10	.	.	19	1	1	4	4
1	0.0010224949	GTTGCCAGCAGCTTAGTCGGGACTAGAGAGTACCTGAAGACCCAGTACTTC	VASSLVGTREYLKTQYF	TRBV7-8*01	TRBJ2-5*01	.	15	.	.	37	1	1	4	4
1	0.0010224949	TGCAGCGTTGGGATGACAGGCGGAAACATTCAGTACTTC	CSVGMTGGNIQYF	TRBV29-1*01	TRBJ2-4*01	.	9	.	.	23	1	1	3	3
1	0.0010224949	TGTGTGGTCTTGGGGGGGGGTCACAGATACGCAGTATTTT	CVVLGGgg??tcTDTQYF	TRBV14*01	TRBJ2-3*01	.	3	.	.	21	1	1	2	2
1	0.0010224949	TGTGCCAGCAGCCCGGTCTCCTACGAGCAGTACTTC	CASSPVSYEQYF	TRBV5-5*01	TRBJ2-7*01	.	11	.	.	17	1	1	12	12
1	0.0010224949	TGTGCCAGCACGGACAGATACAATCAGCCCCAGCATTTT	CASTDRYNQPQHF	TRBV6-2*01,TRBV6-3*01	TRBJ1-5*01	.	9	.	.	20	1	1	16	16
1	0.0010224949	TGTGCCAGCAGTTTGCGGACAGCTAATTCACCCCTCCACTTT	CASSLRTANSPLHF	TRBV12-3*01,TRBV12-4*01	TRBJ1-6*01	.	13	.	.	23	1	1	6	6
1	0.0010224949	TGTGCCTGGGGGAGGTCCTACGAGCAGTACTTC	CAWGRSYEQYF	TRBV30*01	TRBJ2-7*01	.	8	.	.	15	1	1	2	2
1	0.0010224949	TGCGCCAGCAGCCAAGACGTTAACACTGAAGCTTTCTTT	CASSQDVNTEAFF	TRBV4-3*01	TRBJ1-1*01	.	16	.	.	21	1	1	50	50
1	0.0010224949	TGCAGCGTTGCCCCCACAGATACGCAGTATTTT	CSVAPTDTQYF	TRBV29-1*01	TRBJ2-3*01	.	9	.	.	14	1	2	4	7
1	0.0010224949	TGTGCCAGTTGGAATGGGGGATACGAGCAGTACTTC	CASWNGGYEQYF	TRBV6-2*01,TRBV6-3*01	TRBJ2-7*01	.	7	.	.	21	1	1	4	4
1	0.0010224949	TGTGCCAGCAGAAGCGGGGGGGGCACAGATACGCAGTATTTT	CASRSGGGTDTQYF	TRBV6-8*01	TRBJ2-3*01	.	10	.	.	22	1	1	6	6
1	0.0010224949	TGTGCCAGCAGTTACGAACAGGGGAGGACCTACGAGCAGTACTTC	CASSYEQGRTYEQYF	TRBV6-2*01,TRBV6-3*01	TRBJ2-7*01	.	14	.	.	28	1	1	2	2
1	0.0010224949	TGTGCCAGCAGCTTAGCGGGGTACTCTGAAGCTTTCTTT	CASSLAGYSEAFF	TRBV7-8*01	TRBJ1-1*01	.	16	.	.	22	1	1	3	3
1	0.0010224949	TGTGCCAGCTCACCGGCCAGCGGGGGGACGTCTCCTACGCAGTATTTT	CASSPASGGTSPTQYF	TRBV18*01	TRBJ2-3*01	.	13	.	.	35	1	1	3	3
1	0.0010224949	TGTGCCAGCAGTTACTGGGGAGGGACTCCAAACACCGGGGAGCTGTTTTTT	CASSYWGGTPNTGELFF	TRBV6-2*01,TRBV6-3*01	TRBJ2-2*01	.	15	.	.	30	1	1	2	2
1	0.0010224949	TTTGCGGTCTTGGGGGGGCCTCACGAGCAGTACTTC	FAVLGGPHEQYF	TRBV16*01	TRBJ2-7*01	.	4	.	.	22	1	1	2	2
1	0.0010224949	TGCAGCGTTGAGATACGCGAACAAGAGACCCAGTACTTC	CSVEIREQETQYF	TRBV29-1*01	TRBJ2-5*01	.	10	.	.	21	1	1	4	4
1	0.0010224949	TGTGACTGGAGTTCAGACGTGTGCTCTTCCGATCCGATGGAATCAGTGGTATCAACGCAGAGTTTTTT	CDWSSDVCSSDc?cDGISGINAEFF	TRBV30*01	TRBJ2-3*01	.	11	.	.	60	1	1	6	6
1	0.0010224949	TGTGCCAGCAGCCCGGGACAGGGCAATCAGCCCCAGCATTTT	CASSPGQGNQPQHF	TRBV7-9*01	TRBJ1-5*01	.	11	.	.	22	1	1	29	29
1	0.0010224949	TGTGCCAGCACAGACAGGGTCGACACCGGGGAGCTGTTTTTT	CASTDRVDTGELFF	TRBV7-8*01	TRBJ2-2*01	.	9	.	.	22	1	1	5	5
1	0.0010224949	TGTGCCACCAGCAGAGATCTGGGCAGGTCCTACGAGCAGTACTTC	CATSRDLGRSYEQYF	TRBV15*01	TRBJ2-7*01	.	16	.	.	27	1	1	12	12
1	0.0010224949	TTTGCCAGCAGCTCCCTTTCGGGGGGGCGCAATGAGCAGTTCTTC	FASSSLSGGRNEQFF	TRBV7-8*01	TRBJ2-1*01	.	12	.	.	29	1	1	2	2
1	0.0010224949	TGTGCCAGCAGCCAAGAGGGAGGGATCAAAAACATTCAGTACTTC	CASSQEGGIKNIQYF	TRBV4-2*01	TRBJ2-4*01	.	16	.	.	26	1	1	5	5
1	0.0010224949	TGTGCCAGCTCAGCGGCCTACGAGCAGTACTTC	CASSAAYEQYF	TRBV7-9*01	TRBJ2-7*01	.	8	.	.	16	1	1	2	2
1	0.0010224949	TGTGCCAGCAGCCCTATACAGGGTTCGCGGGAGACCCAGTACTTC	CASSPIQGSRETQYF	TRBV7-2*01	TRBJ2-5*01	.	11	.	.	30	1	1	9	9
1	0.0010224949	TGCGGCGGGTGGGGACGGGGGAGCACTGAAGCTTTCTTT	CGGWGRGSTEAFF	TRBV29-1*01	TRBJ1-1*01	.	6	.	.	20	1	1	2	2
1	0.0010224949	TGTGCCAGCAGTATCGGGTGGGATGAGCAGTTCTTC	CASSIGWDEQFF	TRBV28*01	TRBJ2-1*01	.	11	.	.	22	1	1	4	4
1	0.0010224949	TGTGCCAGCAGCCTCCGGGACAGTAATTCACCCCTCCACTTT	CASSLRDSNSPLHF	TRBV5-5*01	TRBJ1-6*01	.	11	.	.	23	1	1	99	99
1	0.0010224949	TGTGCCAGCAGCGTATCGACTAGCGGGGGGGAATACGAGCAGTACTTC	CASSVSTSGGEYEQYF	TRBV11-1*01	TRBJ2-7*01	.	14	.	.	33	1	1	3	3
1	0.0010224949	TGTGCCAGCAGCCGGGGACAGCCGAGTGATGGCTACACCTTC	CASSRGQPSDGYTF	TRBV27*01	TRBJ1-2*01	.	10	.	.	28	1	1	12	12
1	0.0010224949	TGTGCCAGCAGCCAAGATATCGGCAGCTCAGGGGGCTACACCTTC	CASSQDIGSSGGYTF	TRBV14*01	TRBJ1-2*01	.	16	.	.	33	1	1	71	71
1	0.0010224949	TGTGTTAGCAGCCGCACCGGGGGAGAGGCCAAAAACATTCAGTACTTC	CVSSRTGGEAKNIQYF	TRBV14*01	TRBJ2-4*01	.	12	.	.	27	1	1	2	2
1	0.0010224949	TGTGCCAGCAGCCCAAACCGTCTTCCGAGCTCCTACGAGCAGTACTTC	CASSPNRLPSSYEQYF	TRBV11-1*01	TRBJ2-7*01	.	11	.	.	29	1	1	5	5
1	0.0010224949	TGTGCCAGCAGTTCATCCGGGACTAGGAGGCAAGAGACCCAGTACTTC	CASSSSGTRRQETQYF	TRBV28*01	TRBJ2-5*01	.	15	.	.	30	1	1	2	2
1	0.0010224949	TGTGCCAGCAGCCAGATAGGGGGACAATCCATCCAAGAGACCCAGTACTTC	CASSQIGGQSIQETQYF	TRBV4-2*01	TRBJ2-5*01	.	13	.	.	32	1	1	5	5
1	0.0010224949	TGTGCCAGCAGTTGGGGGGGGGATACGCAGTATTTT	CASSWGGDTQYF	TRBV5-5*01	TRBJ2-3*01	.	14	.	.	21	1	2	110	112
1	0.0010224949	TGTGCCAGCACTAAACGGCTAGCGGGGGACACCGGGGAGCTGTTTTTT	CASTKRLAGDTGELFF	TRBV6-2*01,TRBV6-3*01	TRBJ2-2*01	.	9	.	.	28	1	1	2	2
1	0.0010224949	TGTGCCAGTAGTACCAGGTCTCCTAGCAATCAGCCCCAGCATTTT	CASSTRSPSNQPQHF	TRBV19*01	TRBJ1-5*01	.	12	.	.	23	1	1	2	2
1	0.0010224949	TGCAGCGTGATCGGTACGGGCAATCAGCCCCAGCATTTT	CSVIGTGNQPQHF	TRBV29-1*01	TRBJ1-5*01	.	7	.	.	19	1	1	3	3
1	0.0010224949	TGTGCCAGCAGAAGCACCGGGACAGATAACTATGGCTACACCTTC	CASRSTGTDNYGYTF	TRBV6-4*01	TRBJ1-2*01	.	10	.	.	26	1	1	3	3
1	0.0010224949	TGCAGCGTTGTTAGGCCTTCCACCGGGGAGCTGTTTTTT	CSVVRPSTGELFF	TRBV29-1*01	TRBJ2-2*01	.	9	.	.	20	1	1	3	3
1	0.0010224949	TGTGCCAGCAGCCTTGAATACAGACAGAATGAGCAGTTCTTC	CASSLEYRQNEQFF	TRBV7-9*01	TRBJ2-1*01	.	11	.	.	27	1	1	4	4
1	0.0010224949	TGTGCCGCGTCTCGGGGCTGTGAGCCAAAAACATTCAGTACTTC	CAASRGCg?aAKNIQYF	TRBV14*01	TRBJ2-4*01	.	5	.	.	22	1	1	3	3
1	0.0010224949	TTTGCCAGCAGCTCTTACCGGGACAGGGCCAAGAATGAGCAGTTCTTC	FASSSYRDRAKNEQFF	TRBV13*01	TRBJ2-1*01	.	12	.	.	33	1	1	2	2
1	0.0010224949	TGTGCCAGCAGCTTAGCGGGGCCCTACGAGCAGTACTTC	CASSLAGPYEQYF	TRBV7-9*01	TRBJ2-7*01	.	16	.	.	22	1	1	4	4
1	0.0010224949	TGCAGCGTTGCCGGGACAGGGAGGATAGGACTGTTTTTT	CSVAGTGRIGLFF	TRBV29-1*01	TRBJ1-4*01	.	9	.	.	29	1	1	4	4
1	0.0010224949	TGTGCCAGCAGTTACTCAACAGGGTGGGAGACCCAGTACTTC	CASSYSTGWETQYF	TRBV6-5*01	TRBJ2-5*01	.	16	.	.	27	1	1	72	72
1	0.0010224949	TGTGCCAGTAGTATTCAGATAACAAATGAAAAACTGTTTTTT	CASSIQITNEKLFF	TRBV19*01	TRBJ1-4*01	.	13	.	.	20	1	1	36	36
1	0.0010224949	TGTGCCAGCACGTTGTCTGGGGCCAACGTCCTGACTTTC	CASTLSGANVLTF	TRBV6-2*01,TRBV6-3*01	TRBJ2-6*01	.	9	.	.	15	1	1	35	35
1	0.0010224949	TGTGCGTTGTCTTGGGGGGTGTCCTACGAGCAGTACTTC	CALSWGVSYEQYF	TRBV16*01	TRBJ2-7*01	.	4	.	.	21	1	1	4	4
1	0.0010224949	TGTGCCAGCAGTTACTCGAGACAAAGCGGGGCCACTGAAGCTTTCTTT	CASSYSRQSGATEAFF	TRBV6-5*01	TRBJ1-1*01	.	16	.	.	32	1	1	52	52
1	0.0010224949	TGTATGGCTTCTTAGGGGGGGGTAGGCCCGAGCAGTACTTC	CMAS*Ggg?GRPEQYF	TRBV16*01	TRBJ2-7*01	.	2	.	.	28	1	1	3	3
1	0.0010224949	TGTGCTATTGGCTCTTGGGGGGGCGTACGCAGTATTTT	CAIGSWg?gGRTQYF	TRBV12-5*01	TRBJ2-3*01	.	10	.	.	25	1	1	2	2
1	0.0010224949	TGTGCCAGCAGCTTCAGGGTCCCTGGGGAAACACCATATATTTT	CASSFRVc?cWGNTIYF	TRBV7-8*01	TRBJ1-3*01	.	13	.	.	26	1	1	2	2
1	0.0010224949	TGCGCGAGCAGCTTGGATCGCGGGGAGCTGTTTTTT	CASSLDRGELFF	TRBV5-1*01	TRBJ2-2*01	.	15	.	.	20	1	1	4	4
1	0.0010224949	TGTGCCAGCTCACCAACTAGCGGGACACAAGAGACCCAGTACTTC	CASSPTSGTQETQYF	TRBV18*01	TRBJ2-5*01	.	14	.	.	27	1	1	2	2
1	0.0010224949	TGTGCCAGCAGTCGCCGAGAGGACAGGCCCTACGAGCAGTACTTC	CASSRREDRPYEQYF	TRBV27*01	TRBJ2-7*01	.	11	.	.	28	1	1	5	5
1	0.0010224949	TGTGCCAGCAGCTTGGGGGGTTCGGTGAGTTCACCCCTCCACTTT	CASSLGGSVSSPLHF	TRBV5-5*01	TRBJ1-6*01	.	15	.	.	29	1	1	2	2
1	0.0010224949	TGTGCTATTAGCTCTTGGGGGGGCGTACGCAGTATTTT	CAISSWg?gGRTQYF	TRBV10-3*01	TRBJ2-3*01	.	10	.	.	25	1	1	2	2
1	0.0010224949	TGCAGTGCTTCCCGTGGGGGCGCAGAACAGCCCCAGCATTTT	CSASRGGAEQPQHF	TRBV20-1*01	TRBJ1-5*01	.	8	.	.	27	1	1	7	7
1	0.0010224949	TGTGCCAGCAGCAGACAGACTGTCATTGCCGAGCAGTACTTC	CASSRQTVIAEQYF	TRBV7-9*01	TRBJ2-7*01	.	11	.	.	29	1	1	3	3
1	0.0010224949	TGTGCCAGCAGCCCGGACAGGGGGGGGAACATTCAGTACTTC	CASSPDRGGNIQYF	TRBV11-1*01	TRBJ2-4*01	.	11	.	.	27	1	1	3	3
1	0.0010224949	CGTATGGCCTCTTAGGGGGGGGTAGGCCCGAGCAGTACTTC	RMAS*Ggg?GRPEQYF	TRBV16*01	TRBJ2-7*01	.	2	.	.	28	1	1	3	3
1	0.0010224949	TGTGCCAGCAGTTTGGTCAGGGGATACACTGAAGCTTTCTTT	CASSLVRGYTEAFF	TRBV12-3*01,TRBV12-4*01	TRBJ1-1*01	.	13	.	.	25	1	1	40	40
1	0.0010224949	TGCGGGGGGGCCGACATATTCAACACTGAAGCTTTCTTT	CGGADIFNTEAFF	TRBV29-1*01	TRBJ1-1*01	.	2	.	.	21	1	1	4	4
1	0.0010224949	TGTGCCAGCAGCCGCAAGACCGATTACGGTGGCTACACCTTC	CASSRKTDYGGYTF	TRBV7-9*01	TRBJ1-2*01	.	11	.	.	29	1	1	110	110
1	0.0010224949	TGTGCCAGCAGTGCCTCTGGGGCCAACGTCCTGACTTTC	CASSASGANVLTF	TRBV6-4*01	TRBJ2-6*01	.	16	.	.	14	1	1	2	2
1	0.0010224949	TGCAGCGTTGGACCTTGGACAGCGGGGGGGGTGTCCTACGAGCAGTACTTC	CSVGPWTAGGVSYEQYF	TRBV29-1*01	TRBJ2-7*01	.	9	.	.	33	1	1	2	2
1	0.0010224949	TGTGCCAGCCGGGGGAGACAGGGAACCGTCGAGCAGTACTTC	CASRGRQGTVEQYF	TRBV2*01	TRBJ2-7*01	.	8	.	.	29	1	1	3	3
1	0.0010224949	TGTGCCAGCAGGGGAATCAGTCCAAGCTCTGGAAACACCATATATTTT	CASRGISPSSGNTIYF	TRBV14*01	TRBJ1-3*01	.	10	.	.	26	1	1	107	107
1	0.0010224949	TGTGCCAGCAGCGCCGAACGGCTTGAAGCTTTCTTT	CASSAERLEAFF	TRBV2*01	TRBJ1-1*01	.	10	.	.	23	1	1	4	4
1	0.0010224949	TGTGCCAGCACCACCTGGAGTCAAGAGACCCAGTACTTC	CASTTWSQETQYF	TRBV6-2*01,TRBV6-3*01	TRBJ2-5*01	.	9	.	.	21	1	1	28	28
1	0.0010224949	TGTGCCTGGAGGGGGGGGGGCGGCCAATACAATGAGCAGTTCTTC	CAWRGGGGQYNEQFF	TRBV30*01	TRBJ2-1*01	.	10	.	.	27	1	6	2	722
1	0.0010224949	TTTTCCAGCAGCTCTCTTTCGGGGGGGCGCAATGAGCAGTTCTTC	FSSSSLSGGRNEQFF	TRBV7-8*01	TRBJ2-1*01	.	12	.	.	29	1	1	4	4
1	0.0010224949	TGTGCCAGCAGCTTACCCCTAATGAACACTGAAGCTTTCTTT	CASSLPLMNTEAFF	TRBV7-9*01	TRBJ1-1*01	.	14	.	.	22	1	1	6	6
1	0.0010224949	TGCGCCAGCAGCTGGACACTTAACACTGAAGCTTTCTTT	CASSWTLNTEAFF	TRBV5-1*01	TRBJ1-1*01	.	12	.	.	21	1	2	145	149
1	0.0010224949	TGTGCCAGCAGTCCAGCGGCAGGCATGAACACTGAAGCTTTCTTT	CASSPAAGMNTEAFF	TRBV6-2*01,TRBV6-3*01	TRBJ1-1*01	.	11	.	.	25	1	1	2	2
1	0.0010224949	TGCGCCAGCAGCTCGCCTACAGATACGCAGTATTTT	CASSSPTDTQYF	TRBV5-1*01	TRBJ2-3*01	.	12	.	.	18	1	1	3	3
1	0.0010224949	TGCGCCAGCAGCCAAGTCCTAGTGGGAGAGACCCAGTACTTC	CASSQVLVGETQYF	TRBV4-3*01	TRBJ2-5*01	.	15	.	.	26	1	1	2	2
1	0.0010224949	TGTGCCAGCAGGCTACTTCTTCCGACGGGGGGCACAGATACGCAGTATTTT	CASRLLLPTGGTDTQYF	TRBV6-5*01	TRBJ2-3*01	.	10	.	.	31	1	2	216	221
1	0.0010224949	TGTGCCAGCAGAGACCAGCGGGGGGCCAACAATGAGCAGTTCTTC	CASRDQRGANNEQFF	TRBV6-2*01,TRBV6-3*01	TRBJ2-1*01	.	10	.	.	25	1	1	15	15
1	0.0010224949	TGTGCCATCAGTGAACAGGGCTCCTACTCTGGGGCCAACGTCCTGACTTTC	CAISEQGSYSGANVLTF	TRBV10-3*01	TRBJ2-6*01	.	13	.	.	26	1	1	9	9
1	0.0010224949	TGTGCCAGCGGGACAGGAATAGAAAAACTGTTTTTT	CASGTGIEKLFF	TRBV19*01	TRBJ1-4*01	.	7	.	.	21	1	1	2	2
1	0.0010224949	TGTGCCAGCTCACCGGCGCGCTACGAGCAGTACTTC	CASSPARYEQYF	TRBV18*01	TRBJ2-7*01	.	13	.	.	20	1	1	4	4
1	0.0010224949	TGTGCCAGCAGCTTAGAGGGGGCGTCCTACGAGCAGTACTTC	CASSLEGASYEQYF	TRBV7-9*01	TRBJ2-7*01	.	15	.	.	24	1	1	5	5
1	0.0010224949	TGCAGCGTTGCCGTACTTCCGGATAGCTACGAGCAGTACTTC	CSVAVLPDSYEQYF	TRBV29-1*01	TRBJ2-7*01	.	9	.	.	26	1	1	2	2
1	0.0010224949	TGTGCCAGCAGTGAGCACGGGGGCGAGACCGGGGAGCTGTTTTTT	CASSEHGGETGELFF	TRBV2*01	TRBJ2-2*01	.	13	.	.	27	1	1	2	2
1	0.0010224949	TGTGCCAGCAGTCCGGGGATCTCTGGAAACACCATATATTTT	CASSPGISGNTIYF	TRBV7-9*01	TRBJ1-3*01	.	10	.	.	20	1	1	3	3
1	0.0010224949	TGTGCCAGCAACCGAGGCAGGGACTATGGCTACACCTTC	CASNRGRDYGYTF	TRBV12-3*01,TRBV12-4*01	TRBJ1-2*01	.	9	.	.	22	1	1	2	2
1	0.0010224949	TGTGACTGGAGTTCAGACGTGTGCTCTTCCGATCCGATGGAATCAGTGGTATCAACGCAGAGTACTTT	CDWSSDVCSSDc?cDGISGINAEYF	TRBV30*01	TRBJ2-3*01	.	11	.	.	60	1	1	5	5
1	0.0010224949	TGTGCCAGCAGCTTCCGGTTGATCGATCAAGAGACCCAGTACTTC	CASSFRLIDQETQYF	TRBV7-9*01	TRBJ2-5*01	.	13	.	.	27	1	1	3	3
1	0.0010224949	TGTGCCAGCAGTTCGGGACTAGCGGGGTTGCAGTTCTTC	CASSSGLAGLQFF	TRBV6-2*01,TRBV6-3*01	TRBJ2-1*01	.	12	.	.	29	1	1	34	34
1	0.0010224949	TGTGCCAGCAGCCAAGATCTGGCAGGGAGGGGAGGCTACACCTTC	CASSQDLAGRGGYTF	TRBV4-2*01	TRBJ1-2*01	.	16	.	.	33	1	1	21	21
1	0.0010224949	TGTGGTGTCTTGGGGGGGGTGATGGCTACACCTTC	CGVLGgg?GDGYTF	TRBV16*01	TRBJ1-2*01	.	3	.	.	21	1	1	2	2
1	0.0010224949	TGCAGCGTTGGGAGGCAGGGTAAAGAGACCCAGTACTTC	CSVGRQGKETQYF	TRBV29-1*01	TRBJ2-5*01	.	9	.	.	22	1	1	2	2
1	0.0010224949	TGTGCCAGCAGTTACTCGAGACAGGGATCAAGTGAAGCTTTCTTT	CASSYSRQGSSEAFF	TRBV6-6*01	TRBJ1-1*01	.	16	.	.	32	1	1	2	2
1	0.0010224949	TGTGTAGTCTTGGGGGGGGCTTTCTATGAGCAGTTCTTC	CVVLGGAFYEQFF	TRBV14*01	TRBJ2-1*01	.	3	.	.	25	1	1	4	4
1	0.0010224949	TTTGCCAGCAGCCCTCTTTCGGGGGGGCGCAATGAGCAGTTCTTC	FASSPLSGGRNEQFF	TRBV3-1*01	TRBJ2-1*01	.	12	.	.	29	1	1	5	5
1	0.0010224949	TGTGCCAGCAGCTTTCCGACAGGGATGTACCAAGAGACCCAGTACTTC	CASSFPTGMYQETQYF	TRBV7-2*01	TRBJ2-5*01	.	13	.	.	28	1	1	11	11
1	0.0010224949	TGTGCCAGCAGCTCGAACAGGGGACGTGAGGGCTATGGCTACACCTTC	CASSSNRGREGYGYTF	TRBV7-9*01	TRBJ1-2*01	.	12	.	.	32	1	1	2	2
1	0.0010224949	TGCAGCGTCGTAGCGGGGGCCGAGACCCAGTACTTC	CSVVAGAETQYF	TRBV29-1*01	TRBJ2-5*01	.	7	.	.	21	1	1	2	2
1	0.0010224949	TGTGCCAGCAGCTTGTCGTGGAGTGTGGGGACCCAGTACTTC	CASSLSWSVGTQYF	TRBV5-4*01	TRBJ2-5*01	.	14	.	.	29	1	1	2	2
1	0.0010224949	TGCAGCGTTGAGCCGGGACAGGGGGGGAATGGCTACACCTTC	CSVEPGQGGNGYTF	TRBV29-1*01	TRBJ1-2*01	.	10	.	.	28	1	1	2	2
1	0.0010224949	TGTGCCAGCAGCATATCGGGACTAGCGGGGAGGAGGACCCGCACAGATACGCAGTATTTT	CASSISGLAGRRTRTDTQYF	TRBV7-2*01	TRBJ2-3*01	.	14	.	.	40	1	1	11	11
1	0.0010224949	TGTGCCAGCAGCAACAGGGAACGCGGCTACACCTTC	CASSNRERGYTF	TRBV7-9*01	TRBJ1-2*01	.	11	.	.	24	1	1	3	3
1	0.0010224949	TGCGCCACCAACAGGGGGAATGAGCAGTTCTTC	CATNRGNEQFF	TRBV10-2*01	TRBJ2-1*01	.	9	.	.	18	1	1	2	2
1	0.0010224949	TGAAGCGTTGAAGAGGGACATCCGAACACCGGGGAGCTGTTTTTT	*SVEEGHPNTGELFF	TRBV29-1*01	TRBJ2-2*01	.	13	.	.	22	1	1	3	3
1	0.0010224949	TGTGCTAGTGGTTTGGGCGTGGGGGGATACAATGAGCAGTTCTTC	CASGLGVGGYNEQFF	TRBV12-5*01	TRBJ2-1*01	.	15	.	.	27	1	1	3	3
1	0.0010224949	TGCAGCGTTCCGAATGAACTTATGGCGGGGGGTCGTACCGGGGAGCTGTTTTTT	CSVPNELMAGGRTGELFF	TRBV29-1*01	TRBJ2-2*01	.	8	.	.	36	1	1	2	2
1	0.0010224949	TGTGCCAGCAGCTTAGGTGATGGGGCCGAGGGGAATGAGCAGTTCTTC	CASSLGDGAEGNEQFF	TRBV7-9*01	TRBJ2-1*01	.	15	.	.	33	1	1	5	5
1	0.0010224949	TGTGCCAGCAGCTCACCTACCTGGGGAAGCTCCTACGAGCAGTACTTC	CASSSPTWGSSYEQYF	TRBV7-2*01	TRBJ2-7*01	.	12	.	.	29	1	1	2	2
1	0.0010224949	TGCAGTGCTCCGAGGACTAGCGGGGCGACAGATACGCAGTATTTT	CSAPRTSGATDTQYF	TRBV20-1*01	TRBJ2-3*01	.	8	.	.	27	1	1	76	76
1	0.0010224949	TGTGCCAGCAGCTTTTCCGGGACCTACAATGAGCAGTTCTTC	CASSFSGTYNEQFF	TRBV7-9*01	TRBJ2-1*01	.	13	.	.	22	1	1	7	7
1	0.0010224949	TGTGCCAGCACCGTAAACAGCTACTACGAGCAGTACTTC	CASTVNSYYEQYF	TRBV6-2*01,TRBV6-3*01	TRBJ2-7*01	.	9	.	.	20	1	1	82	82
1	0.0010224949	TGTGCCACCAGCAGAGAGGCAGGAACAACCGGGGAGCTGTTTTT	CATSREAg?gNNRGAVF	TRBV15*01	TRBJ2-2*01	.	16	.	.	22	1	1	2	2
1	0.0010224949	TGCGCCAGCAGCCAAGGCGGGGGCCGCACAGATACGCAGTATTTT	CASSQGGGRTDTQYF	TRBV4-3*01	TRBJ2-3*01	.	15	.	.	25	1	1	49	49
1	0.0010224949	TGTGCCAGCAGCTTGTCGGGACAGGACTCCTACGAGCAGTACTTC	CASSLSGQDSYEQYF	TRBV11-1*01	TRBJ2-7*01	.	13	.	.	26	1	1	36	36
1	0.0010224949	TGTGCCAGCAGTCTGCAGGACAATCAGCCCCAGCATTTT	CASSLQDNQPQHF	TRBV6-2*01,TRBV6-3*01	TRBJ1-5*01	.	11	.	.	20	1	1	2	2
1	0.0010224949	TGTGCCAGCAGTGAGGGACTAGCGGCCCGCGGGTCGTTCTTC	CASSEGLAARGSFF	TRBV27*01	TRBJ2-1*01	.	11	.	.	35	1	1	2	2
1	0.0010224949	TGCAGCACAGTAACAGGGAACACTGAAGCTTTCTTT	CSTVTGNTEAFF	TRBV29-1*01	TRBJ1-1*01	.	5	.	.	17	1	1	3	3
1	0.0010224949	TGCGCCAGCAGTTCTTC	CAag?QFF	TRBV5-1*01	TRBJ2-1*01	.	10	.	.	6	1	1	7	7
1	0.0010224949	TGCAGCGTTGTATCAGGGGACTATGGCTACACCTTC	CSVVSGDYGYTF	TRBV29-1*01	TRBJ1-2*01	.	9	.	.	19	1	1	3	3
1	0.0010224949	TGCAGCGTTGTTGTGGATTTAAGTGAAAAACTGTTTTTT	CSVVVDLSEKLFF	TRBV29-1*01	TRBJ1-4*01	.	9	.	.	23	1	1	2	2
1	0.0010224949	TGTGCCAGCAGTACCGGACTGACTAGCGGGGGACAATACGAGCAGTACTTC	CASSTGLTSGGQYEQYF	TRBV6-2*01,TRBV6-3*01	TRBJ2-7*01	.	11	.	.	36	1	1	4	4
1	0.0010224949	TGCGCCAGCAGCCCGACCCCGGACGGAGAAAATTCACCCCTCCACTTT	CASSPTPDGENSPLHF	TRBV5-1*01	TRBJ1-6*01	.	11	.	.	30	1	1	2	2
1	0.0010224949	TGTGCCAGCTCACCTCGGGGGACAGTGAACACCGGGGAGCTGTTTTTT	CASSPRGTVNTGELFF	TRBV18*01	TRBJ2-2*01	.	13	.	.	26	1	1	2	2
1	0.0010224949	TGCGCCAGCAGCCACACCCTCGGGACTGGAAACACCATATATTTT	CASSHTLGTGNTIYF	TRBV4-3*01	TRBJ1-3*01	.	13	.	.	25	1	1	25	25
1	0.0010224949	TGTGCCAGCAGTGGACAGGGGTCCTACGAGCAGTACTTC	CASSGQGSYEQYF	TRBV11-1*01	TRBJ2-7*01	.	10	.	.	21	1	1	4	4
1	0.0010224949	TGTGCCAGCAGTTCTACAGGGACCTACGAGCAGTACTTC	CASSSTGTYEQYF	TRBV2*01	TRBJ2-7*01	.	11	.	.	22	1	1	4	4
1	0.0010224949	TGTGCAGAGAGGATGCGGCTGTGGAGGTGGGCTACACCTTC	CAERMRct?VEVGYTF	TRBV12-5*01	TRBJ1-2*01	.	4	.	.	29	1	1	2	2
1	0.0010224949	CGCAGAGTTGAAGACGGACAGGGGGCCACCGGGGAGCTGTTTTTT	RRVEDGQGATGELFF	TRBV29-1*01	TRBJ2-2*01	.	13	.	.	26	1	1	2	2
1	0.0010224949	TGCGCCAGCAGCTTCCCGCCGGGACAGGGGGCGGCGGATACGCAGTATTTT	CASSFPPGQGAADTQYF	TRBV5-1*01	TRBJ2-3*01	.	13	.	.	36	1	1	2	2
1	0.0010224949	TGCAGCGTACTAAATCTGGTAGATCAAGGCTACACCTTC	CSVLNLVDQGYTF	TRBV29-1*01	TRBJ1-2*01	.	7	.	.	27	1	1	2	2
1	0.0010224949	TGTGCCAGCAGTCAAGGACTAGCGGGGGATCGCGATGAGCAGTTCTTC	CASSQGLAGDRDEQFF	TRBV6-2*01,TRBV6-3*01	TRBJ2-1*01	.	11	.	.	34	1	1	5	5
1	0.0010224949	TGTGTCACCAACAGGGGGAATGAGCAGTTCTTC	CVTNRGNEQFF	TRBV24-1*01	TRBJ2-1*01	.	9	.	.	18	1	1	4	4
1	0.0010224949	TGTGCCAGCAATTGGGGGGGATCCTACGAGCAGTACTTC	CASNWGGSYEQYF	TRBV5-6*01	TRBJ2-7*01	.	9	.	.	21	1	1	16	16
1	0.0010224949	TGCAGCGCTGCCCGGGGGAGGGACGCTGAAGCTTTCTTT	CSAARGRDAEAFF	TRBV29-1*01	TRBJ1-1*01	.	9	.	.	22	1	1	2	2
1	0.0010224949	TGTGCCACCCAAAGGGGCTACGAGCAGTACTTC	CATQRGYEQYF	TRBV28*01	TRBJ2-7*01	.	6	.	.	17	1	1	2	2
1	0.0010224949	TGTGCCTGGAGTGTACTAGGGATCGGCGCTGAAGCTTTCTTT	CAWSVLGIGAEAFF	TRBV30*01	TRBJ1-1*01	.	13	.	.	28	1	1	13	13
1	0.0010224949	TGTGCTAGTGGTCCAATACAGGCAGATACGCAGTATTTT	CASGPIQADTQYF	TRBV12-5*01	TRBJ2-3*01	.	11	.	.	22	1	1	3	3
1	0.0010224949	TGCAGTGCCCATACGAGCGGGGGGGGTGAGACCCAGTACTTC	CSAHTSGGGETQYF	TRBV20-1*01	TRBJ2-5*01	.	7	.	.	27	1	1	11	11
1	0.0010224949	TGTGCCAGCAGCCAAGGGAGCGGGACAATGGGCCTAGAGACCCAGTACTTC	CASSQGSGTMGLETQYF	TRBV4-2*01	TRBJ2-5*01	.	15	.	.	32	1	1	2	2
1	0.0010224949	TGTGCCAGTAGACAGATTCACGGTGGGGAGACCCAGTACTTC	CASRQIHGGETQYF	TRBV19*01	TRBJ2-5*01	.	10	.	.	27	1	1	16	16
1	0.0010224949	TGTGCCAGCAGTACCCGGCCGGCGGGCACTGAAGCTTTCTTT	CASSTRPAGTEAFF	TRBV6-2*01,TRBV6-3*01	TRBJ1-1*01	.	11	.	.	26	1	1	6	6
1	0.0010224949	TGTGCCCCCTCCAAGAA	CAcc?LQE	TRBV25-1*01	TRBJ1-6*01	.	5	.	.	5	1	1	2	2
1	0.0010224949	TGTGCCAGCAGCGCTCGGACAGGGGCCGAGCAGTACTTC	CASSARTGAEQYF	TRBV9*01	TRBJ2-7*01	.	12	.	.	26	1	1	4	4
1	0.0010224949	TGTGCCTGGAGTAACAGGGGGCCAACCTACTTC	CAWSNRGPTYF	TRBV30*01	TRBJ2-7*01	.	11	.	.	27	1	1	5	5
1	0.0010224949	TGCAGCGTTGGTCTAGGGGAAGGCTACGAGCAGTACTTC	CSVGLGEGYEQYF	TRBV29-1*01	TRBJ2-7*01	.	9	.	.	23	1	1	4	4
1	0.0010224949	TGTGCCATCAGGGGGCGTGGGGCTCAGCTCCTACAATGAGCAGTTCTTC	CAIRGRGA??cSSYNEQFF	TRBV3-1*01	TRBJ2-1*01	.	10	.	.	27	1	1	4	4
1	0.0010224949	GGTTCCAGGGGTGAAGCTTTCTTT	GSRGEAFF	TRBV2*01	TRBJ1-1*01	.	16	.	.	11	1	1	3	3
1	0.0010224949	TGTGCCAGCAGTGAAGTCGGGGGAACCTACGAGCAGTACTTC	CASSEVGGTYEQYF	TRBV2*01	TRBJ2-7*01	.	15	.	.	25	1	1	2	2
1	0.0010224949	TGTGCCAGTAGTATTCGTGTAGCGGGGGGGCCAGGAACGCAGTATTTT	CASSIRVAGGPGTQYF	TRBV19*01	TRBJ2-3*01	.	13	.	.	36	1	1	2	2
1	0.0010224949	TGCAGCGTTGACCTGACGGGGTCCTTAGGTGGCTACACCTTC	CSVDLTGSLGGYTF	TRBV29-1*01	TRBJ1-2*01	.	10	.	.	29	1	1	2	2
1	0.0010224949	TGCAGCGTTCGACAGTGGGATCAGTTCTTC	CSVRQWDQFF	TRBV29-1*01	TRBJ2-1*01	.	8	.	.	18	1	1	10	10
1	0.0010224949	TGTGCCAGCAGTTTTAGTTCTGGGGCCAACGTCCTGACTTTC	CASSFSSGANVLTF	TRBV28*01	TRBJ2-6*01	.	13	.	.	18	1	1	10	10
1	0.0010224949	TGTGCCAGCTCACCACTCGTTCAGTTACACTCTGGAAACACCATATATTTT	CASSPLVQLHSGNTIYF	TRBV18*01	TRBJ1-3*01	.	15	.	.	29	1	1	2	2
1	0.0010224949	TGTGCCAGTAGTGCCGACAGGGGGCTTTACTATGGCTACACCTTC	CASSADRGLYYGYTF	TRBV19*01	TRBJ1-2*01	.	11	.	.	28	1	1	21	21
1	0.0010224949	TTTGCCAGCAGCTTAGGGGGTAGCGGGAGTCCCAATGAGCAGTTCTTC	FASSLGGSGSPNEQFF	TRBV13*01	TRBJ2-1*01	.	16	.	.	32	1	1	2	2
1	0.0010224949	TGTGCCAGCAGTTTTTTCAGAGGGGGCAATCAGCCCCAGCATTTT	CASSFFRGGNQPQHF	TRBV27*01	TRBJ1-5*01	.	13	.	.	25	1	1	7	7
1	0.0010224949	TGTGCCAGCAGCTTTTTACGAACTTACGAGCAGTACTTC	CASSFLRTYEQYF	TRBV7-2*01	TRBJ2-7*01	.	13	.	.	24	1	1	14	14
1	0.0010224949	TGCAGCGTCCGCGCCGGGGATCAGCCCCAGCATTTT	CSVRAGDQPQHF	TRBV29-1*01	TRBJ1-5*01	.	7	.	.	19	1	1	4	4
1	0.0010224949	TGCGCCAGCAGCCAAGATCCTATACCATGGAAGAACACCGGGGAGCTGTTTTTT	CASSQDPIPWKNTGELFF	TRBV4-3*01	TRBJ2-2*01	.	16	.	.	32	1	1	2	2
1	0.0010224949	TGCAGCGTTGGACTAGCGGGAGCCTCCTACGAGCAGTACTTC	CSVGLAGASYEQYF	TRBV29-1*01	TRBJ2-7*01	.	9	.	.	23	1	1	10	10
1	0.0010224949	TGTGCCAGCAGCGCGGGACGGACCGTCACAGATACGCAGTATTTT	CASSAGRTVTDTQYF	TRBV7-2*01	TRBJ2-3*01	.	11	.	.	26	1	1	2	2
1	0.0010224949	TGTGCCAGCAGCAAAGGACAGGGTTCAACAACTAATGAAAAACTGTTTTTT	CASSKGQGSTTNEKLFF	TRBV7-9*01	TRBJ1-4*01	.	11	.	.	28	1	1	4	4
1	0.0010224949	TTGTCCTGGAGTGTTATAGGGGCCGCCACCGGGGAGCTGTTTTTT	LSWSVIGAATGELFF	TRBV30*01	TRBJ2-2*01	.	13	.	.	26	1	1	2	2
1	0.0010224949	TGTGCCAGCAGGGCCAGCGTTTATAGCAATCAGCCCCAGCATTTT	CASRASVYSNQPQHF	TRBV12-3*01,TRBV12-4*01	TRBJ1-5*01	.	10	.	.	23	1	1	11	11
1	0.0010224949	TGTGCCACCGGGGAACTCTACGAGCAGTACTTC	CATGELYEQYF	TRBV28*01	TRBJ2-7*01	.	6	.	.	17	1	1	9	9
1	0.0010224949	TGTGCCAGCAGTTACGGTCTTGCTAGCGGCCTCGTAGAGACCCAGTACTTC	CASSYGLASGLVETQYF	TRBV6-2*01,TRBV6-3*01	TRBJ2-5*01	.	14	.	.	35	1	1	15	15
1	0.0010224949	TGTGCCAGCTCACCATTCCGGGACAGCTCAGACGAGCAGTACTTC	CASSPFRDSSDEQYF	TRBV18*01	TRBJ2-7*01	.	14	.	.	31	1	1	2	2
1	0.0010224949	TGTGCCAGCAGCTTAGCCGGGTTTCCGGGCAGAAACACCGGGGAGCTGTTTTTT	CASSLAGFPGRNTGELFF	TRBV7-9*01	TRBJ2-2*01	.	16	.	.	33	1	1	2	2
1	0.0010224949	TGTGCCACAACACGGACTAGCGGGGGGGCCACAGATACGCAGTATTTT	CATTRTSGGATDTQYF	TRBV6-2*01,TRBV6-3*01	TRBJ2-3*01	.	6	.	.	29	1	1	42	42
1	0.0010224949	TGTGCCTGGAGTCAGGGGGCCTATGGCTACACCTTC	CAWSQGAYGYTF	TRBV30*01	TRBJ1-2*01	.	11	.	.	20	1	1	23	23
1	0.0010224949	TGTGCCACCAGTGGGGAGGGGGAGAGCTCCTACAATGAGCAGTTCTTC	CATSGEGESSYNEQFF	TRBV24-1*01	TRBJ2-1*01	.	12	.	.	26	1	1	3	3
1	0.0010224949	TGTGCTAGCAGCTTATCAGCGGGCTCCTACAATGAGCAGTTCTTC	CASSLSAGSYNEQFF	TRBV7-7*01	TRBJ2-1*01	.	14	.	.	23	1	1	2	2
1	0.0010224949	TGCAGTGCTAGAGATCAGTACAGGGAGGCCTACGAGCAGTACTTC	CSARDQYREAYEQYF	TRBV20-1*01	TRBJ2-7*01	.	13	.	.	28	1	1	3	3
1	0.0010224949	TGCAGCGTTGAAAAGGGGGTACAGGGGAACTATGGCTACACCTTC	CSVEKGVQGNYGYTF	TRBV29-1*01	TRBJ1-2*01	.	11	.	.	27	1	2	2	5
1	0.0010224949	TGTGCCTGGAGCATCCCCGGAGGTCAGCCCCAGCATTTT	CAWSIPGGQPQHF	TRBV30*01	TRBJ1-5*01	.	10	.	.	23	1	1	3	3
1	0.0010224949	TGTGCCAGCGACCCCGCAGCGGGCGGCACAGATACGCAGTATTTT	CASDPAAGGTDTQYF	TRBV7-9*01	TRBJ2-3*01	.	8	.	.	25	1	1	3	3
1	0.0010224949	CGTATAGCTTCTTAGGGGGGGGTAGGCCCGAGCAGTACTTC	RIAS*Ggg?GRPEQYF	TRBV16*01	TRBJ2-7*01	.	2	.	.	28	1	1	3	3
1	0.0010224949	TGTGCCAGCAGCTTCTTAGGGTCGAGTAGGGAGCAGTACTTC	CASSFLGSSREQYF	TRBV7-8*01	TRBJ2-7*01	.	13	.	.	30	1	1	3	3
1	0.0010224949	TGTGCCAGCAGCCAAGGGACAGGGAGCTACGAGCAGTACTTC	CASSQGTGSYEQYF	TRBV5-6*01	TRBJ2-7*01	.	11	.	.	26	1	1	2	2
1	0.0010224949	TGTGCCAGCAGCTTCGGACAGGGAGGTCAGCCCCAGCATTTT	CASSFGQGGQPQHF	TRBV7-9*01	TRBJ1-5*01	.	13	.	.	26	1	1	2	2
1	0.0010224949	TGTGCCAGCAGCTTCACTTTCAAAGGGGGTATCCAAGAGACCCAGTACTTC	CASSFTFKGGIQETQYF	TRBV7-9*01	TRBJ2-5*01	.	13	.	.	32	1	1	44	44
1	0.0010224949	TGTGCCAGCACCGCCCGGAGTATAAGAAACACCGGGGAGCTGTTTTTT	CASTARSIRNTGELFF	TRBV27*01	TRBJ2-2*01	.	9	.	.	27	1	1	2	2
1	0.0010224949	TGTGCCAGCAGCCTCGGACAGGGCAATGAGCAGTTCTTC	CASSLGQGNEQFF	TRBV7-9*01	TRBJ2-1*01	.	11	.	.	23	1	1	2	2
1	0.0010224949	TGCGCCAGCAGCTCTGGGAGTGCGGGTGGGGAGCAGTACTTC	CASSSGSAGGEQYF	TRBV5-1*01	TRBJ2-7*01	.	12	.	.	30	1	1	4	4
1	0.0010224949	TGTGCTATTAGGTCTTGGGGGGGCGTACGCAGTATTTT	CAIRSWg?gGRTQYF	TRBV12-5*01	TRBJ2-3*01	.	6	.	.	25	1	1	2	2
1	0.0010224949	TGCGCCAGCAGCTTAGGGGGGCGGAAGAACACTGAAGCTTTCTTT	CASSLGGRKNTEAFF	TRBV5-1*01	TRBJ1-1*01	.	13	.	.	26	1	1	104	104
1	0.0010224949	TGCAGCGGCCGACAGGGCGGTCAGACCCAGTACTTC	CSGRQGGQTQYF	TRBV29-1*01	TRBJ2-5*01	.	6	.	.	22	1	1	2	2
1	0.0010224949	TGTGCCAGCAGCTTAGTACTAGCGGGGGACTACGAGCAGTACTTC	CASSLVLAGDYEQYF	TRBV7-2*01	TRBJ2-7*01	.	15	.	.	29	1	1	9	9
1	0.0010224949	GGGGCCAGCAGCTTAGGACAGGGGGCCTACGAGCAGTACTTC	GASSLGQGAYEQYF	TRBV13*01	TRBJ2-7*01	.	16	.	.	25	1	1	2	2
1	0.0010224949	TGTGCCAGCGCTAGCGGAGCCGCCAAAAACATTCAGTACTTC	CASASGAAKNIQYF	TRBV7-3*01	TRBJ2-4*01	.	8	.	.	21	1	1	2	2
1	0.0010224949	TGTGCCAGCAGCCAAAAGACCTTCTCTGGGGCCAACGTCCTGACTTTC	CASSQKTFSGANVLTF	TRBV4-2*01	TRBJ2-6*01	.	14	.	.	23	1	1	3	3
1	0.0010224949	TGTGCCAGCAGGTTAGAGGTTGGAGGGACCACTGAAGCTTTCTTT	CASRLEVGGTTEAFF	TRBV7-9*01	TRBJ1-1*01	.	15	.	.	26	1	1	2	2
1	0.0010224949	TGTGACTGGAGTTCAGACGTGTGCTCTTCCGATCCGATGGAATCAGTGGTATCAACGCAGAGTTATTT	CDWSSDVCSSDc?cDGISGINAELF	TRBV30*01	TRBJ2-3*01	.	11	.	.	65	1	1	2	2
1	0.0010224949	TGCAGCGCACGGCGGATGAACACTGAAGCTTTCTTT	CSARRMNTEAFF	TRBV29-1*01	TRBJ1-1*01	.	6	.	.	16	1	1	26	26
1	0.0010224949	TGCAGTGGAATAGGGGACAGCACAGATACGCAGTATTTT	CSGIGDSTDTQYF	TRBV29-1*01	TRBJ2-3*01	.	4	.	.	18	1	1	3	3
1	0.0010224949	AGTGCCATCAGCTGTTTTTT	SAIa?gLFF	TRBV10-3*01	TRBJ2-2*01	.	10	.	.	9	1	1	10	10
1	0.0010224949	TGCGCCAGCAGCGTATATAGCTCCTACAATGAGCAGTTCTTC	CASSVYSSYNEQFF	TRBV5-1*01	TRBJ2-1*01	.	11	.	.	20	1	1	2	2
1	0.0010224949	TGCAGTGCTAGAGATTCCCGGGGGGGAACAGATACGCAGTATTTT	CSARDSRGGTDTQYF	TRBV20-1*01	TRBJ2-3*01	.	13	.	.	27	1	1	9	9
1	0.0010224949	TATGCAAGCAGTGGTATCAACGCAGAGTTTGGTGCCGTAGCATCTT	YASSGINgc??agSLVP*HL	TRBV2*01	TRBJ1-3*01	.	12	.	.	41	1	1	2	2
1	0.0010224949	TGCAGCGTTCGAGGGAGCTCCTACGAGCAGTACTTC	CSVRGSSYEQYF	TRBV29-1*01	TRBJ2-7*01	.	8	.	.	17	1	1	2	2
1	0.0010224949	TGTGCTATTAGTTCTTGGGGGGGCGTACGCAGTATTTT	CAISSWg?gGRTQYF	TRBV12-5*01	TRBJ2-3*01	.	12	.	.	25	1	1	2	2
1	0.0010224949	TGTGCCAGTAGTATCGGCTCCAGAGGTTACGAGCAGTACTTC	CASSIGSRGYEQYF	TRBV19*01	TRBJ2-7*01	.	13	.	.	27	1	1	2	2
1	0.0010224949	TGTGCCAGCAGCTTGGTTCAGAACAATGAGCAGTTCTTC	CASSLVQNNEQFF	TRBV5-5*01	TRBJ2-1*01	.	15	.	.	22	1	1	12	12
1	0.0010224949	TGTGCCAGCAGCCAAGCCTCGACTAGCGGGGGTGCCTACGAGCAGTACTTC	CASSQASTSGGAYEQYF	TRBV7-2*01	TRBJ2-7*01	.	11	.	.	34	1	2	2	5
1	0.0010224949	TGTGCCAGCAGCTTGGTGACAGGGGGAGTAGAGTCACCCCTCCACTTT	CASSLVTGGVESPLHF	TRBV5-6*01	TRBJ1-6*01	.	15	.	.	33	1	1	10	10
1	0.0010224949	TGTGCCAGCAGCCTAGGAGGGGGCGGTGAGCAGTTCTTC	CASSLGGGGEQFF	TRBV7-9*01	TRBJ2-1*01	.	15	.	.	26	1	1	6	6
1	0.0010224949	TGTGCCAGCAGCCGGGGCACTGAAGCTTTCTTT	CASSRGTEAFF	TRBV7-9*01	TRBJ1-1*01	.	11	.	.	17	1	1	3	3
1	0.0010224949	TGTGCCAGCTCACCACCGCGGGAGACCCAGTACTTC	CASSPPRETQYF	TRBV18*01	TRBJ2-5*01	.	16	.	.	21	1	1	2	2
1	0.0010224949	TGCAGCGTACCGACCTACACCGGGGAGCTGTTTTTT	CSVPTYTGELFF	TRBV29-1*01	TRBJ2-2*01	.	7	.	.	16	1	1	2	2
1	0.0010224949	TGTGCCAGCAGCAAATCCCCAGCGGGGTGGGAGACCCAGTACTTC	CASSKSPAGWETQYF	TRBV13*01	TRBJ2-5*01	.	11	.	.	30	1	1	9	9
1	0.0010224949	TGCAGCGTTACCCCTTGGGGGGGGGCGTCGGATGAGCAGTTCTTC	CSVTPWGGASDEQFF	TRBV29-1*01	TRBJ2-1*01	.	8	.	.	31	1	1	3	3
1	0.0010224949	TGCAGCGTTGTAGTCCCTTTGGGAATGAAGAAGGGGACCCCGAGGACTGAAGCTTTCTTT	CSVVVPLGMKKGTPRTEAFF	TRBV29-1*01	TRBJ1-1*01	.	12	.	.	45	1	1	49	49
1	0.0010224949	TCCAGCGTTGTTTCTTAGGGGGGGTAACAGATACGCAGTATTTT	SSVVS*Gg?gVTDTQYF	TRBV29-1*01	TRBJ2-3*01	.	9	.	.	26	1	1	4	4
1	0.0010224949	TGTGCCAGCAGCCTAAGAAGAGGGGCCCAAGAGACCCAGTACTTC	CASSLRRGAQETQYF	TRBV2*01	TRBJ2-5*01	.	10	.	.	26	1	1	2	2
1	0.0010224949	TGCGCCAGCAGCCAAGCACGGGGACTGCCGCCGGGCGAGCAGTACTTC	CASSQARGLPPGEQYF	TRBV4-3*01	TRBJ2-7*01	.	15	.	.	35	1	1	10	10
1	0.0010224949	TGCAGCGTTAAGGGAAGCAGAGACACTGAAGCTTTCTTT	CSVKGSRDTEAFF	TRBV29-1*01	TRBJ1-1*01	.	8	.	.	22	1	1	2	2
1	0.0010224949	TGTGCCAGCAGCTTAGGTCCCGGAGATCAGCCCCAGCATTTT	CASSLGPGDQPQHF	TRBV7-4*01	TRBJ1-5*01	.	15	.	.	25	1	1	7	7
1	0.0010224949	TGCAGTGCCGGAGAGGAGACCCAGTACTTC	CSAGEETQYF	TRBV20-1*01	TRBJ2-5*01	.	13	.	.	15	1	1	43	43
1	0.0010224949	TGCAGCGGAAACAGGGGTGTGGCAGATACGCAGTATTTT	CSGNRGVADTQYF	TRBV29-1*01	TRBJ2-3*01	.	6	.	.	22	1	1	2	2
1	0.0010224949	TGCAGCGTAATGGACAATAGCAATCAGCCCCAGCATTTT	CSVMDNSNQPQHF	TRBV29-1*01	TRBJ1-5*01	.	7	.	.	17	1	1	2	2
1	0.0010224949	CTGTTCTTGGGGGGGGCGTCCTAGCACAGATACGCAGTATTTT	LFLGGAS??tSTDTQYF	TRBV27*01	TRBJ2-3*01	.	3	.	.	22	1	1	4	4
1	0.0010224949	TGCGCCAGCAGCCAAGACGCTACCCACACCGGGGAGCTGTTTTTT	CASSQDATHTGELFF	TRBV4-3*01	TRBJ2-2*01	.	16	.	.	25	1	1	33	33
1	0.0010224949	TGTGCCAGCAGTCGCCTTCCAAGGACAGGTGAAGCTTTCTTT	CASSRLPRTGEAFF	TRBV27*01	TRBJ1-1*01	.	11	.	.	29	1	1	2	2
1	0.0010224949	AGTAGCGTTGAGTCTTGGGGGGGGAACTATGGCTACACCTTC	SSVESWGGNYGYTF	TRBV29-1*01	TRBJ1-2*01	.	10	.	.	24	1	1	5	5
1	0.0010224949	TGTGCCATGGGACAAGGGGACCTAAACTATGGCTACACCTTC	CAMGQGDLNYGYTF	TRBV10-3*01	TRBJ1-2*01	.	7	.	.	24	1	1	8	8
1	0.0010224949	TGTGCCAGCAGCTTAGGTCGGACAGGAGCGAGCGAGCAGTACTTC	CASSLGRTGASEQYF	TRBV13*01	TRBJ2-7*01	.	16	.	.	32	1	1	2	2
1	0.0010224949	TGTGCCAGCAGCTCCCGGAGTGGTTGGGACGAGCAGTACTTC	CASSSRSGWDEQYF	TRBV7-9*01	TRBJ2-7*01	.	12	.	.	28	1	1	5	5
1	0.0010224949	TGTGCCAGCAGCACAGGACGTGGGGGTGGTGAGCAGTTCTTC	CASSTGRGGGEQFF	TRBV7-9*01	TRBJ2-1*01	.	11	.	.	29	1	1	2	2
1	0.0010224949	TGTGCCAGCAGTCCGGGACAGGGGGCACAGCCCCAGCATTTT	CASSPGQGAQPQHF	TRBV6-2*01,TRBV6-3*01	TRBJ1-5*01	.	11	.	.	27	1	1	4	4
1	0.0010224949	TGCAGTCCGGACCAAATTAGGGATACGCAGTATTTT	CSPDQIRDTQYF	TRBV20-1*01	TRBJ2-3*01	.	5	.	.	21	1	1	3	3
1	0.0010224949	TGCACCAGCAGTCAGCCCGATCCCAGCGGACAGCACTGAAGCTTTCTTT	CTSSQPDP??aADSTEAFF	TRBV27*01	TRBJ1-1*01	.	11	.	.	33	1	1	5	5
1	0.0010224949	TGTGCCAGTAGTAATCAGGGAGGCACTGAAGCTTTCTTT	CASSNQGGTEAFF	TRBV19*01	TRBJ1-1*01	.	12	.	.	23	1	1	33	33
1	0.0010224949	TGAGCCAGCAGCTTGGATCGCGGGGAGCTGTTTTTT	*ASSLDRGELFF	TRBV5-1*01	TRBJ2-2*01	.	15	.	.	20	1	1	3	3
1	0.0010224949	TGCGCCATCAGGGGGCGTGGGGCTCAGCTCCTACAATGAGCAGTTCTTC	CAIRGRGA??cSSYNEQFF	TRBV10-3*01	TRBJ2-1*01	.	10	.	.	27	1	1	4	4
1	0.0010224949	TGCAGCGACACTAGGGGGGCCTCCTACAATGAGCAGTTCTTC	CSDTRGASYNEQFF	TRBV29-1*01	TRBJ2-1*01	.	6	.	.	20	1	1	2	2
1	0.0010224949	CGTGCCATCGTCTCTTGGGGGGATTCACAGATACGCAGTATTTT	RAIVSWGg?aFTDTQYF	TRBV10-3*01	TRBJ2-3*01	.	8	.	.	25	1	1	4	4
1	0.0010224949	TGCGCCAGCAGCCGGTGGGGGGAGATGAACACTGAAGCTTTCTTT	CASSRWGEMNTEAFF	TRBV5-1*01	TRBJ1-1*01	.	11	.	.	25	1	1	3	3
1	0.0010224949	TGTGCCAGCAGCTTCGGGACAGATACGCAGTATTTT	CASSFGTDTQYF	TRBV7-2*01	TRBJ2-3*01	.	13	.	.	18	1	1	2	2
1	0.0010224949	TGTGCCAGCAGCGTGGCCGCTGGCGGGGAGCTGTTTTTT	CASSVAAGGELFF	TRBV7-9*01	TRBJ2-2*01	.	11	.	.	23	1	1	7	7
1	0.0010224949	TGTGCCAGCAGGTGGAAGTGGGGTTCCGAGCAGTACTTC	CASRWKWGSEQYF	TRBV6-5*01	TRBJ2-7*01	.	10	.	.	26	1	1	4	4
1	0.0010224949	TGCGCCAGCAGCTTGGGACAACTCCAAGAGACCCAGTACTTC	CASSLGQLQETQYF	TRBV5-1*01	TRBJ2-5*01	.	15	.	.	23	1	1	6	6
1	0.0010224949	TGCAGCGTTGTGAACGGACGGACAACTAACTATGTCTACACCTTC	CSVVNGRTTNYVYTF	TRBV29-1*01	TRBJ1-2*01	.	9	.	.	25	1	1	2	2
1	0.0010224949	TGCAGCGTACTGGACAGGTTTCCCGATCAGCCCCAGCATTTT	CSVLDRFPDQPQHF	TRBV29-1*01	TRBJ1-5*01	.	7	.	.	25	1	1	2	2
1	0.0010224949	TGCAGCGTTAGTACTAGCGACACCGGGGAGCTGTTTTTT	CSVSTSDTGELFF	TRBV29-1*01	TRBJ2-2*01	.	8	.	.	19	1	1	2	2
1	0.0010224949	TGTGCCATCATGGAGGGACTAGCGGGTTTCCATGAGCAGTTCTTC	CAIMEGLAGFHEQFF	TRBV10-3*01	TRBJ2-1*01	.	9	.	.	31	1	1	11	11
1	0.0010224949	TGTGCCAGCAGCTATACACAAGACTGGAAGAAAGAGACCCAGTACTTC	CASSYTQDWKKETQYF	TRBV7-9*01	TRBJ2-5*01	.	12	.	.	31	1	2	152	155
1	0.0010224949	TGTGCCAGCAGTTTTCTAGGAGCAGAGACCCAGTACTTC	CASSFLGAETQYF	TRBV28*01	TRBJ2-5*01	.	13	.	.	23	1	1	2	2
1	0.0010224949	TGTGCCAGCAGCTGGGGGGTAGCGGCTACCTACGAGCAGTACTTC	CASSWGVAATYEQYF	TRBV7-6*01	TRBJ2-7*01	.	12	.	.	28	1	1	2	2
1	0.0010224949	TGTGCCAGCAGCCCGGGGGACAGAATAAACACCGGGGAGCTGTTTTTT	CASSPGDRINTGELFF	TRBV7-3*01	TRBJ2-2*01	.	11	.	.	27	1	1	3	3
1	0.0010224949	TGTGTTAGTGTCTTAGAGGGGGCATACAATGAGCAGTTCTTC	CVSVLEGAYNEQFF	TRBV12-5*01	TRBJ2-1*01	.	9	.	.	24	1	1	4	4
1	0.0010224949	TGTGCCAGCAGAGCGAGAGACGAGCAGTACTTC	CASRARDEQYF	TRBV2*01	TRBJ2-7*01	.	10	.	.	19	1	1	9	9
1	0.0010224949	TGTGCCAGCAGCTTATTAGCGGGGGACCCATACAATGAGCAGTTCTTC	CASSLLAGDPYNEQFF	TRBV7-2*01	TRBJ2-1*01	.	14	.	.	30	1	2	61	64
1	0.0010224949	TGCAGTGCTAGACAAGGAGGAGGGGGCCCCGTGGAGACCCAGTACTTC	CSARQGGGGPVETQYF	TRBV20-1*01	TRBJ2-5*01	.	11	.	.	33	1	1	2	2
1	0.0010224949	TGTGCCAGCAGCAACACAGCGGGGAATGAGCAGTTCTTC	CASSNTAGNEQFF	TRBV7-9*01	TRBJ2-1*01	.	11	.	.	24	1	1	4	4
1	0.0010224949	TGTGCCAGCAATCCGTCGGCAGGTTCATCCTACAATGAGCAGTTCTTC	CASNPSAGSSYNEQFF	TRBV12-3*01,TRBV12-4*01	TRBJ2-1*01	.	9	.	.	27	1	1	26	26
1	0.0010224949	TGTGCCAGCAGCCCGACTCCAACCGGGACAGGGGGTTACGAGCAGTACTTC	CASSPTPTGTGGYEQYF	TRBV9*01	TRBJ2-7*01	.	11	.	.	36	1	1	4	4
1	0.0010224949	TGTGCCACCAGCAGAATCCGAGGGCACGGCCATGGCTACACCTTC	CATSRIRGHGHGYTF	TRBV15*01	TRBJ1-2*01	.	14	.	.	31	1	1	3	3
1	0.0010224949	TGTGCCAGCAGCTACGGGAGCTATGGCTACACCTTC	CASSYGSYGYTF	TRBV7-3*01	TRBJ1-2*01	.	12	.	.	20	1	1	4	4
1	0.0010224949	TGCAGCGCATTTAGACAGTCAACTGAGGATGGCTACACCTTC	CSAFRQSTEDGYTF	TRBV29-1*01	TRBJ1-2*01	.	6	.	.	28	1	1	2	2
1	0.0010224949	TGTGCCATCAGTGGACCCGGGGAGCTGTTTTTT	CAISGPGELFF	TRBV10-3*01	TRBJ2-2*01	.	12	.	.	16	1	1	16	16
1	0.0010224949	TATGCCATCGTCTCTTGGGGGGATTCACAGATACGCAGTATTTT	YAIVSWGg?aFTDTQYF	TRBV10-3*01	TRBJ2-3*01	.	8	.	.	25	1	1	4	4
1	0.0010224949	TGTGCCTGGAGTGTAGGGACTAGCACTTACAATGAGCAGTTCTTC	CAWSVGTSTYNEQFF	TRBV30*01	TRBJ2-1*01	.	13	.	.	27	1	1	2	2
1	0.0010224949	TGTGCCAGCAGCTTAGGGGAAGACTATGGCTACACCTTC	CASSLGEDYGYTF	TRBV7-9*01	TRBJ1-2*01	.	15	.	.	22	1	1	3	3
1	0.0010224949	TGTGCCAGCTCGCGCCCCGGGACAGGGAATGAAAAACTGTTTTTT	CASSRPGTGNEKLFF	TRBV7-9*01	TRBJ1-4*01	.	8	.	.	27	1	2	176	181
1	0.0010224949	TGCAGTGGGTATGGCAGGGGGCCACGCGGACCTTTCTACGAGCAGTACTTC	CSGYGRGPRGPFYEQYF	TRBV20-1*01	TRBJ2-7*01	.	6	.	.	35	1	1	2	2
1	0.0010224949	TGTGCCAGCAGCAAAGAGGGGGAAAAAGGGGGCGAAGTATCCTACGAGCAGTACTTC	CASSKEGEKGGEVSYEQYF	TRBV13*01	TRBJ2-7*01	.	11	.	.	39	1	1	5	5
1	0.0010224949	TGTGCCAGCAGCTTATGGAGCGGGGCCTCCTACAATGAGCAGTTCTTC	CASSLWSGASYNEQFF	TRBV7-9*01	TRBJ2-1*01	.	14	.	.	26	1	1	6	6
1	0.0010224949	TGTGCCGCCGGGACAGGGGGACATGGCTACACCTTC	CAAGTGGHGYTF	TRBV24-1*01	TRBJ1-2*01	.	8	.	.	22	1	1	2	2
1	0.0010224949	TGCGCCAGCAGCCCGGACAGGGTCTACGAGCAGTACTTC	CASSPDRVYEQYF	TRBV5-1*01	TRBJ2-7*01	.	11	.	.	23	1	1	2	2
1	0.0010224949	TGCAGCGCCTTGGGGGATACCTACGAGCAGTACTTC	CSALGDTYEQYF	TRBV29-1*01	TRBJ2-7*01	.	6	.	.	19	1	1	3	3
1	0.0010224949	TGTGCCACCAGCAGAGCCGAGACGGGACCTCAATATGGCTACACCTTC	CATSRAETGPQYGYTF	TRBV15*01	TRBJ1-2*01	.	15	.	.	33	1	1	2	2
1	0.0010224949	TGTGCCAGCAGTTACGGTGTAGGCGGGGGGGTAAACAATGAGCAGTTCTTC	CASSYGVGGGVNNEQFF	TRBV6-2*01,TRBV6-3*01	TRBJ2-1*01	.	14	.	.	34	1	1	14	14
1	0.0010224949	TGTGCCAGCAGCCGAGGACCTGCGGCCCAAGAGACCCAGTACTTC	CASSRGPAAQETQYF	TRBV3-1*01	TRBJ2-5*01	.	15	.	.	26	1	1	2	2
1	0.0010224949	TTGTGCCAGCAGCTTAGAGGGGGGGTACACTGAAGCTTTCTTT	LCQQLRG??gGYTEAFF	TRBV7-8*01	TRBJ1-1*01	.	16	.	.	26	1	1	4	4
1	0.0010224949	TGCAGCGTTGTCGGGGGGCGCGGGGAGACCCAGTACTTC	CSVVGGRGETQYF	TRBV29-1*01	TRBJ2-5*01	.	9	.	.	24	1	1	4	4
1	0.0010224949	TGTGCCAGCAGTTTGCTCGATCAGCCCCAGCATTTT	CASSLLDQPQHF	TRBV28*01	TRBJ1-5*01	.	13	.	.	19	1	1	2	2
1	0.0010224949	TGCGCCAGCAGCTTGGGGCTCACAGGGGGCACCAACGAGCAGTACTTC	CASSLGLTGGTNEQYF	TRBV5-1*01	TRBJ2-7*01	.	15	.	.	31	1	1	6	6
1	0.0010224949	TGCAGCGTTGTGGGACAGGGAGGCGAGACCCAGTACTTC	CSVVGQGGETQYF	TRBV29-1*01	TRBJ2-5*01	.	9	.	.	24	1	1	4	4
1	0.0010224949	TGCAGCGTTGCCTTGGTGGGCGGAAGCACAGATACGCAGTATTTT	CSVALVGGSTDTQYF	TRBV29-1*01	TRBJ2-3*01	.	9	.	.	24	1	1	2	2
1	0.0010224949	TGTGCCAGCAGTGAGATCCTCGCCGGGGCCAACGTCCTGACTTTC	CASSEILAGANVLTF	TRBV6-1*01	TRBJ2-6*01	.	13	.	.	24	1	1	33	33
1	0.0010224949	TGTGCCAGCAGCCTGACAGGGACCCTTCGAGGAAACACCATATATTTT	CASSLTGTLRGNTIYF	TRBV11-2*01	TRBJ1-3*01	.	11	.	.	30	1	1	5	5
1	0.0010224949	TGCGCCAGCAGCGTGACAGGGTTGTACGATACGCAGTATTTT	CASSVTGLYDTQYF	TRBV5-1*01	TRBJ2-3*01	.	14	.	.	27	1	1	2	2
1	0.0010224949	TGTGCCAGCAGTTTAGGCGTAGCGGGGGAGACCCAGTACTTC	CASSLGVAGETQYF	TRBV12-3*01,TRBV12-4*01	TRBJ2-5*01	.	15	.	.	27	1	1	2	2
1	0.0010224949	TGTGCCAGCAGCTTAGATGGGCTAGCGGTCCAGATCTACGAGCAGTACTTC	CASSLDGLAVQIYEQYF	TRBV11-2*01	TRBJ2-7*01	.	16	.	.	35	1	1	2	2
1	0.0010224949	TGTGCCAGCAGTTTAGGGGGGGCCTTATACGAGCAGTACTTC	CASSLGGALYEQYF	TRBV28*01	TRBJ2-7*01	.	14	.	.	27	1	1	6	6
1	0.0010224949	TGCAGTGCTAGCTTAGCGGGGGGTTACAATGAGCAGTTCTTC	CSASLAGGYNEQFF	TRBV20-1*01	TRBJ2-1*01	.	10	.	.	24	1	1	3	3
1	0.0010224949	TGTGCCAGCAGCCGACAGGGGGCCCGAACTGAAGCTTTCTTT	CASSRQGARTEAFF	TRBV3-1*01	TRBJ1-1*01	.	12	.	.	27	1	1	2	2
1	0.0010224949	TGTGCCAGCAGCACCACAGGGGGCGGTGAGACCCAGTACTTC	CASSTTGGGETQYF	TRBV7-8*01	TRBJ2-5*01	.	11	.	.	27	1	1	3	3
1	0.0010224949	TGCGCCAGCAGAGGAGGCGGGGGCGAGCAGTACTTC	CASRGGGGEQYF	TRBV5-1*01	TRBJ2-7*01	.	10	.	.	23	1	1	2	2
1	0.0010224949	TGTGCCAGCAGGAGACAGGGGGCTGATGAAAAACTGTTTTTT	CASRRQGADEKLFF	TRBV7-9*01	TRBJ1-4*01	.	10	.	.	22	1	1	2	2
1	0.0010224949	TGTGTGTTGTCTTGGGGGGTGTCCTACGAGCAGTACTTC	CVLSWGVSYEQYF	TRBV7-8*01	TRBJ2-7*01	.	3	.	.	21	1	1	6	6
1	0.0010224949	TGTGCCAGCAGTGAAGCGCTCTCGGACCTGGGCTATGGCTACACCTTC	CASSEALSDLGYGYTF	TRBV6-1*01	TRBJ1-2*01	.	16	.	.	32	1	1	25	25
1	0.0010224949	TGCAGCGTTTCGGGACTAGCGGGGGATCAAGAGACCCAGTACTTC	CSVSGLAGDQETQYF	TRBV29-1*01	TRBJ2-5*01	.	8	.	.	27	1	1	4	4
1	0.0010224949	TGTGCCAGCTCACCAAGGGCCTTCACCAGGGAAGAGACCCAGTACTTC	CASSPRAFTREETQYF	TRBV18*01	TRBJ2-5*01	.	14	.	.	31	1	1	13	13
1	0.0010224949	TGTGCCAGCAGCCGCCCCGGGGAAGATACGCAGTATTTT	CASSRPGEDTQYF	TRBV14*01	TRBJ2-3*01	.	12	.	.	23	1	1	2	2
1	0.0010224949	TGTGCCAGTAGTAGCACCGGGACAGCCTACAATGAGCAGTTCTTC	CASSSTGTAYNEQFF	TRBV19*01	TRBJ2-1*01	.	12	.	.	25	1	1	2	2
1	0.0010224949	CGTGCCAGCAGCTTAGCCGGGTTTCCGGACAGAAACACCGGGGAGCTGTTTTTT	RASSLAGFPDRNTGELFF	TRBV5-6*01	TRBJ2-2*01	.	13	.	.	33	1	1	2	2
1	0.0010224949	TGTGCCAGCAGTTACGACGAAGGAGCCACAGATACGCAGTATTTT	CASSYDEGATDTQYF	TRBV6-6*01	TRBJ2-3*01	.	14	.	.	26	1	1	2	2
1	0.0010224949	TGTGTCAGCAGTCAGAACAGGGGAAACACTGAAGCTTTCTTT	CVSSQNRGNTEAFF	TRBV14*01	TRBJ1-1*01	.	13	.	.	24	1	1	3	3
1	0.0010224949	TGTGCCACCAGCAAAAGACAGGGGAACTATGGCTACACCTTC	CATSKRQGNYGYTF	TRBV15*01	TRBJ1-2*01	.	12	.	.	24	1	1	3	3
1	0.0010224949	TGTGCCAGCAGTCGGGACGGGAGCAATCAGCCCCAGCATTTT	CASSRDGSNQPQHF	TRBV6-5*01	TRBJ1-5*01	.	11	.	.	21	1	1	12	12
1	0.0010224949	TGTGCCATCAGGGGGCCCGGACAGGGAAGCACAGATACGCAGTATTTT	CAIRGPGQGSTDTQYF	TRBV10-3*01	TRBJ2-3*01	.	10	.	.	27	1	1	23	23
1	0.0010224949	TGCGCCAGCAGCCAGGATCAGGGGAGGACTGAAGCTTTCTTT	CASSQDQGRTEAFF	TRBV5-1*01	TRBJ1-1*01	.	11	.	.	27	1	1	3	3
1	0.0010224949	TGCAGCTCCCAACCGGACAGGGAATGGGAGACCCAGTACTTC	CSSQPDREWETQYF	TRBV29-1*01	TRBJ2-5*01	.	5	.	.	27	1	1	3	3
1	0.0010224949	TGTCTTGGAGGGGAGGAATGAACACTGAAGCTTTCTTT	CLGGEEt?gNTEAFF	TRBV9*01	TRBJ1-1*01	.	2	.	.	18	1	1	2	2
1	0.0010224949	TGTAGGGTCTTGGGGGGGGGTCACAGATACGCAGTATTTT	CRVLGGgg??tcTDTQYF	TRBV14*01	TRBJ2-3*01	.	2	.	.	21	1	1	2	2
1	0.0010224949	TGTGCCAGCAGCTTAGGTTCGGGGGTAATTGAGACCCAGTACTTC	CASSLGSGVIETQYF	TRBV7-2*01	TRBJ2-5*01	.	15	.	.	30	1	1	2	2
1	0.0010224949	TGTGCCAGCAGCCCCCAGGGGGAAAAACTGTTTTTT	CASSPQGEKLFF	TRBV7-2*01	TRBJ1-4*01	.	11	.	.	21	1	1	4	4
1	0.0010224949	TGCAGCGTTGAAAGTAGGTGGCGGAACTCCTACAATGAGCAGTTCTTC	CSVESRWRNSYNEQFF	TRBV29-1*01	TRBJ2-1*01	.	11	.	.	26	1	1	5	5
1	0.0010224949	TGTGCCAGCATAGGAGGAGGTCAAGAGACCCAGTACTTC	CASIGGGQETQYF	TRBV6-1*01	TRBJ2-5*01	.	9	.	.	21	1	2	77	80
1	0.0010224949	TGCAGCGTTGGGAATCGAGCCTCCGGGTACGAGCAGTACTTC	CSVGNRASGYEQYF	TRBV29-1*01	TRBJ2-7*01	.	9	.	.	27	1	1	2	2
1	0.0010224949	TGTGCCCACAAGAAATCTAGCACAGATACGCAGTATTTT	CAHKKSSTDTQYF	TRBV6-2*01,TRBV6-3*01	TRBJ2-3*01	.	5	.	.	18	1	1	3	3
1	0.0010224949	TGTGCCAGCAGCTTGGGTCAGAAGACCCAGTACTTC	CASSLGQKTQYF	TRBV11-1*01	TRBJ2-5*01	.	13	.	.	22	1	1	34	34
1	0.0010224949	TGTGCCAGCAGCACGCACGGGGATCAAGAGACCCAGTACTTC	CASSTHGDQETQYF	TRBV7-2*01	TRBJ2-5*01	.	11	.	.	24	1	1	2	2
1	0.0010224949	TGTGCCAGTACCCCGGGACAGGGCAGGGCCACCGGGGAGCTGTTTTTT	CASTPGQGRATGELFF	TRBV19*01	TRBJ2-2*01	.	9	.	.	29	1	1	2	2
1	0.0010224949	TGTGCCTTTACCGGGGAAACACGGACCTACGAGCAGTACTTC	CAFTGETRTYEQYF	TRBV10-3*01	TRBJ2-7*01	.	5	.	.	25	1	1	14	14
1	0.0010224949	TGTGCCGCGTCTCGGGGCTGTGAGCCAAAAACATTCAGTACTTC	CAASRGCg?aAKNIQYF	TRBV7-8*01	TRBJ2-4*01	.	5	.	.	22	1	1	2	2
1	0.0010224949	TGTGCCAGCAGCTACCGGACAGGAGACACTGAAGCTTTCTTT	CASSYRTGDTEAFF	TRBV7-4*01	TRBJ1-1*01	.	12	.	.	25	1	1	2	2
1	0.0010224949	TGTGCCAGCAGTTCGACGACGGGGGTAGGGGAAAAACTGTTTTTT	CASSSTTGVGEKLFF	TRBV28*01	TRBJ1-4*01	.	12	.	.	30	1	2	32	34
1	0.0010224949	CGTACGGCTTCTTAGGGGGGGGTAGGCCCGAGCAGTACTTC	RTAS*Ggg?GRPEQYF	TRBV16*01	TRBJ2-7*01	.	2	.	.	28	1	1	5	5
1	0.0010224949	TGTGCCAGCAGCTGGGACAGAAGCACAGATACGCAGTATTTT	CASSWDRSTDTQYF	TRBV7-3*01	TRBJ2-3*01	.	12	.	.	21	1	1	2	2
1	0.0010224949	TGTGCCAGCAGCTTATACCAGGGTAGTGAGGCCGGGGAGCTGTTTTTT	CASSLYQGSEAGELFF	TRBV7-2*01	TRBJ2-2*01	.	14	.	.	31	1	1	4	4
1	0.0010224949	TGTGCTATTAACTCTTGGGGGGGCGTACGCAGTATTTT	CAINSWg?gGRTQYF	TRBV12-5*01	TRBJ2-3*01	.	6	.	.	25	1	1	16	16
1	0.0010224949	TGTGCCAGCAGCCAAGATTCTCTCCCTTACAATGAGCAGTTCTTC	CASSQDSLPYNEQFF	TRBV3-1*01	TRBJ2-1*01	.	16	.	.	27	1	1	5	5
1	0.0010224949	TGTGCCACCAGCCGCCGGCTAGCGGGGAGCCACGAGCAGTACTTC	CATSRRLAGSHEQYF	TRBV15*01	TRBJ2-7*01	.	11	.	.	31	1	1	2	2
1	0.0010224949	TGTGCCAGCAGCCGACTAGCGGGGGGGCCAAGCTCCTACAATGAGCAGTTCTTC	CASSRLAGGPSSYNEQFF	TRBV7-2*01	TRBJ2-1*01	.	11	.	.	32	1	1	2	2
1	0.0010224949	TGCAGCGTTGAAGGGAGCGGGGGGGTTTACAATGAGCAGTTCTTC	CSVEGSGGVYNEQFF	TRBV29-1*01	TRBJ2-1*01	.	12	.	.	27	1	1	3	3
1	0.0010224949	TGTGCCAGCAGCCACCCGGGACCTAATTCACCCCTCCACTTT	CASSHPGPNSPLHF	TRBV3-1*01	TRBJ1-6*01	.	13	.	.	23	1	1	2	2
1	0.0010224949	TGTGCCATTTT	Cgc?HF	TRBV10-3*01	TRBJ1-5*01	.	7	.	.	5	1	1	2	2
1	0.0010224949	TGCAGTGGGCAGGGGGCATTGGGGGGCAGCACTGAAGCTTTCTTT	CSGQGALGGSTEAFF	TRBV20-1*01	TRBJ1-1*01	.	6	.	.	29	1	1	3	3
